jade_mines={
	location=4311
	color={
		85 195 85 
	}
	inland=yes
	outgoing={
		name="tree_of_stone"
		path={
			1139 
		}
		control={
			4126.000000 1419.000000 4116.000000 1418.000000 4107.000000 1411.000000 4097.000000 1409.000000 4096.000000 1400.000000 4080.000000 1399.000000 4073.000000 1393.000000 4074.000000 1356.000000 4066.000000 1344.000000 4065.000000 1329.000000 3994.000000 1329.000000 3983.000000 1323.000000 3948.000000 1324.000000 3944.000000 1335.000000 3944.000000 1349.000000 
		}
	}
	members={
		4301 4302 4303 4304 4305 4306 4307 4308 4309 4310 4314 4315 4316 4317 4318 4319 4320 4359 4360 4312 4350 4311 4313 4339 4338 4337 4336 4335 4334 4351 4352 4348 4349 4324 4325 4326 4353 4327 4329 4330 4331 4332 4344 4354 4345 4355 4342 4341 4340 4323 4356 
	}
}
tree_of_stone={
	location=4247
	color={
		140 160 200 
	}
	inland=yes
	outgoing={
		name="seghdihr"
		path={
			1139 
		}
		control={
			3932.000000 1358.000000 3914.000000 1348.000000 3895.000000 1344.000000 3870.000000 1344.000000 3800.000000 1348.000000 3764.000000 1350.000000 3746.000000 1354.000000 3710.000000 1353.000000 3694.000000 1340.000000 3661.000000 1326.000000 3631.000000 1322.000000 3613.000000 1323.000000 
		}
	}
	members={
		4242 4243 4244 4245 4246 4247 4248 4249 4250 4251 4252 4253 4254 4255 4256 4257 4258 4259 4260 4261 4262 4263 4264 4265 4266 4297 4298 4300 4284 4277 4277 4279 4280 4281 4271 4267 4282 4269 4270 4272 4292 4274 4275 4268 4283 4285 4287 4286 4288 4293 4294 4295 4296 4299 4278 4273 4290 4289 4291 
	}
}
epedna={
	location=1847
	inland=yes
	outgoing={
		name="lower_ynn"
		path={
			1139 
		}
		control={
			1014.000000 1503.000000 1115.000000 1522.000000 
		}
	}
	outgoing={
		name="upper_ynn"
		path={
			1165 
		}
		control={
			1065.000000 1598.000000 1140.000000 1625.000000 
		}
	}
	outgoing={
		name="trollsbay"
		path={
			1519 
		}
		control={
			1010.000000 1497.000000 1076.000000 1453.000000 1096.000000 1400.000000 1133.000000 1327.000000 1218.000000 1292.000000 1262.000000 1306.000000 
		}
	}
	members={
		1773 1774 1194 1766 1193 1792 2821 2843 1800 1815 1816 1817 1818 1823 1824 1846 1847 1848 1849 1859 1851 1852 1853 1854 1855 1856 1857 1858 1860 1861 1862 1863 1864 2729 1850 2842 1838 1839 1840 1841 1842 1843 1844 1836 1879 1957 2855 1845 1931 2854 1882 2856 1881 
	}
}
upper_ynn={
	location=1165
	inland=yes
	outgoing={
		name="lower_ynn"
		path={
			1139 
		}
		control={
			1180.000000 1567.000000 1158.000000 1543.000000 
		}
	}
	outgoing={
		name="broken_sea"
		path={
			1492 
		}
		control={
			1170.000000 1643.000000 1202.000000 1715.000000 1176.000000 1779.000000 1170.000000 1829.000000 
		}
	}
	members={
		1837 1742 1198 2662 2838 2488 2840 2742 1197 1196 2819 2784 2807 2781 2811 2837 2839 2862 2814 1820 2813 2812 2808 2809 1819 1160 1162 1163 1164 1165 1166 1167 1168 1169 1170 1171 1172 1174 1175 1176 1177 1178 1179 1180 1181 1182 1183 1184 1185 1186 1187 1188 1189 1190 1191 1192 1745 1747 1748 1750 1755 1756 1757 1758 1759 1760 1764 1765 1767 
	}
}
lower_ynn={
	location=1139
	inland=yes
	outgoing={
		name="trollsbay"
		path={
			1519 
		}
		control={
			1159.000000 1501.000000 1141.000000 1451.000000 1172.000000 1430.000000 1228.000000 1414.000000 1240.000000 1327.000000 
		}
	}
	members={
		2815 2857 1828 1829 1830 1831 1832 1833 1834 1835 2836 2844 2606 2615 2817 2783 2858 2757 2860 1877 1874 2861 2859 2810 2816 2841 1133 1134 1135 1136 1137 1138 1139 1140 1141 1142 1143 1144 1145 1146 1147 1148 1149 1150 1151 1152 1153 1154 1155 1156 1157 1158 1159 1161 2818 1821 1878 1822 1825 1826 1827 
	}
}
broken_sea={
	location=1492
	color={
		203 254 254 
	}
	outgoing={
		name="eigras"
		path={
			1693 
		}
		control={
			979.000000 1900.000000 848.000000 1826.000000 770.000000 1751.000000 
		}
	}
	outgoing={
		name="dalaire"
		path={
			1576 
		}
		control={
			1209.000000 1915.000000 1272.000000 1977.000000 1351.000000 1972.000000 1476.000000 2022.000000 1631.000000 2016.000000 1638.000000 1879.000000 1753.000000 1782.000000 
		}
	}
	members={
		1772 1989 1769 1753 1762 1770 2798 2799 2749 1768 1752 1751 1761 1754 1746 1749 1247 2482 1249 1248 2801 2802 2800 2820 1273 1245 1246 1234 1230 2516 1243 1244 1227 1228 1318 1235 1763 2569 1492 
	}
}
eigras={
	location=1693
	outgoing={
		name="eordand"
		path={
			1690 
		}
		control={
			640.000000 1793.000000 509.000000 1835.000000 390.000000 1701.000000 
		}
	}
	members={
		2797 1984 1982 2047 1967 1776 1777 1778 1963 1813 1809 1962 1780 1964 1965 1971 1981 1983 1966 1968 1970 1775 1979 1972 1973 1987 1693 
	}
}
eordand={
	location=1690
	outgoing={
		name="dearktir"
		path={
			1683 
		}
		control={
			429.000000 1590.000000 383.000000 1435.000000 437.000000 1361.000000 
		}
	}
	members={
		1118 1997 2027 2036 2025 2003 2004 2005 2007 2013 2024 2016 2017 2050 2015 1125 1993 1875 2011 2014 2012 1990 1771 2503 1988 2002 1969 1986 1985 1122 1978 1974 2006 1994 1109 1112 1690 2008 2026 2009 2159 
	}
}
dearktir={
	location=1683
	outgoing={
		name="west_haraf"
		path={
			1720 
		}
		control={
			400.000000 1252.000000 539.000000 1156.000000 421.000000 952.000000 
		}
	}
	members={
		2063 2062 2061 2825 2051 2052 2053 2054 2055 2056 2057 2058 2059 2060 2010 2018 2019 2020 2021 2022 2023 2028 2029 2030 2031 2032 2033 2034 2035 2037 2038 2039 2040 2041 2042 2043 2044 2045 2048 2049 2046 1683 
	}
}
central_haraf={
	location=2822
	inland=yes
	outgoing={
		name="west_haraf"
		path={
			1720 
		}
		control={
			803.000000 1107.000000 736.000000 1040.000000 616.000000 973.000000 
		}
	}
	members={
		2095 2096 2097 2098 2099 2100 2101 2102 2103 2104 2105 2106 2107 2108 2109 2110 2111 2112 2113 2114 2115 2822 2823 2826 2827 2138 2824 2094 
	}
}
west_haraf={
	location=1720
	outgoing={
		name="tor_nayyi"
		path={
			1680 
		}
		control={
			698.000000 849.000000 
		}
	}
	members={
		2079 2080 2081 2082 2083 2084 2085 2086 2087 2088 2089 2090 2092 2116 2117 2118 2119 2120 2121 2122 2123 2127 2128 2129 2130 2131 2132 2133 2134 2136 2139 2140 2141 2142 2143 2144 2145 2146 2147 2148 2149 2150 1720 
	}
}
tor_nayyi={
	location=1680
	outgoing={
		name="cheshoshmar"
		path={
			1528 
		}
		control={
			1023.000000 894.000000 1158.000000 873.000000 1163.000000 1027.000000 1194.000000 1087.000000 
		}
	}
	members={
		2173 2151 2152 2153 2154 2155 2156 2157 2158 2161 2162 2163 2164 2165 2166 2167 2168 2160 2172 2064 2065 2066 2067 2068 2069 2070 2071 2072 2073 2074 2075 2076 2077 2078 1680 2171 
	}
}
larankar={
	location=2484
	inland=yes
	outgoing={
		name="chendhya"
		path={
			1662 
		}
		control={
			1523.000000 337.000000 1460.000000 331.000000 
		}
	}
	outgoing={
		name="taychend"
		path={
			1544 
		}
		control={
			1634.000000 351.000000 1683.000000 293.000000 
		}
	}
	outgoing={
		name="south_effelai"
		path={
			2377 
		}
		control={
			1514.000000 346.000000 1455.000000 398.000000 1474.000000 462.000000 
		}
	}
	members={
		2467 2466 2472 2470 2469 2474 2473 2477 2475 2478 2481 2480 2483 2486 2487 2485 2489 2479 2484 2490 2491 2494 2552 2492 2554 2553 2555 2556 2493 2496 2497 2550 2558 
	}
}
taychend={
	location=1544
	outgoing={
		name="korrimutren"
		path={
			1546 
		}
		control={
			1738.000000 127.000000 1605.000000 140.000000 1502.000000 182.000000 
		}
	}
	outgoing={
		name="dry_coast"
		path={
			1546 
		}
		control={
			1829.000000 347.000000 1903.000000 345.000000 1981.000000 296.000000 
		}
	}
	members={
		2522 2532 2523 2531 2517 2534 2536 2518 2519 2520 2533 2535 2521 2541 2543 2544 2546 2539 2537 2515 2514 2501 2540 2511 2510 2508 2509 2499 2502 2500 2507 2504 2506 2505 2498 2495 2551 2547 2549 2545 2564 2329 2330 1544 
	}
}
dry_coast={
	location=1607
	outgoing={
		name="east_effelai"
		path={
			1539 
		}
		control={
			2104.320068 281.760010 2224.000000 258.000000 2201.000000 356.000000 
		}
	}
	members={
		2512 2336 2345 2335 2333 2332 2346 2331 2347 2308 2337 2307 2309 2338 2344 2306 2305 2301 2304 2302 2300 2303 2294 2299 2298 2295 2296 2297 2311 2315 2313 2312 2314 2316 2317 2318 2319 2320 2321 2322 2323 2324 2325 2326 2327 2328 2513 1607 2310 
	}
}
east_effelai={
	location=1539
	outgoing={
		name="leechden"
		path={
			1301 1300 
		}
		control={
			2053.000000 605.000000 1928.000000 631.000000 
		}
	}
	members={
		1539 2273 2276 2275 2272 2274 2279 2277 2806 2246 2805 2245 2803 2804 2242 2240 2243 2244 2239 2291 2238 2290 2289 2292 2278 2288 2287 2237 2286 2280 2281 2285 2236 2235 2284 2241 2271 2270 2293 2247 2269 2268 2248 2249 2250 2252 2253 2254 2255 2256 2259 2260 2257 2262 2261 2258 2263 
	}
}
south_effelai={
	location=2377
	inland=yes
	outgoing={
		name="leechden"
		path={
			2233 2226 
		}
		control={
			1650.000000 520.000000 1636.000000 592.000000 1654.000000 634.000000 1671.000000 643.000000 1706.000000 678.000000 1764.000000 701.000000 1824.000000 668.000000 
		}
	}
	members={
		2363 2364 2365 2376 2375 2266 2343 2264 2267 2378 2377 2366 2339 2341 2342 2340 2370 2371 2369 2367 2368 2379 2381 2380 2374 2373 2372 
	}
}
chendhya={
	location=1662
	inland=yes
	outgoing={
		name="mteibas"
		path={
			2665 
		}
		control={
			1289.000000 250.000000 1271.000000 183.000000 
		}
	}
	outgoing={
		name="korrimutren"
		path={
			1546 
		}
		control={
			1394.000000 226.000000 1456.000000 186.000000 
		}
	}
	outgoing={
		name="kheionai"
		path={
			1741 
		}
		control={
			1288.000000 255.000000 1234.000000 218.000000 1149.000000 206.000000 1092.000000 143.000000 
		}
	}
	members={
		2460 2461 2462 2463 2464 2468 2607 2605 2604 2587 2586 2584 2573 2572 2465 2603 2591 2610 2657 2655 2654 2652 2583 2585 2612 2611 2580 2582 2574 2650 2651 2656 2653 2593 2592 2594 2601 2602 1662 
	}
}
korrimutren={
	location=1546
	outgoing={
		name="ameion"
		path={
			2683 
		}
		control={
			1413.000000 119.000000 
		}
	}
	members={
		2588 2590 2579 2578 2577 2576 2575 2568 2571 2570 2560 2567 2566 2565 2561 2525 2524 2526 2562 2559 2527 2529 2528 2542 2530 2581 2613 2589 1546 
	}
}
mteibas={
	location=2665
	inland=yes
	outgoing={
		name="ameion"
		path={
			1731 
		}
		control={
			1335.000000 153.000000 1392.000000 104.000000 
		}
	}
	outgoing={
		name="kheionai"
		path={
			1741 
		}
		control={
			1234.000000 140.000000 1181.000000 112.000000 1105.000000 118.000000 
		}
	}
	members={
		2691 2638 2647 2704 2703 2637 2646 2667 2639 2644 2664 2663 2632 2631 2629 2627 2666 2661 2659 2628 2649 2658 2665 2660 2711 2705 2702 2712 2648 2710 2715 
	}
}
ameion={
	location=1731
	outgoing={
		name="kheionai"
		path={
			1741 
		}
		control={
			1241.000000 11.000000 1116.000000 19.000000 1054.000000 103.000000 
		}
	}
	members={
		2684 2690 2692 2717 2716 2682 2697 2694 2693 2701 2686 2687 2688 2689 2635 2626 2640 2641 2642 2643 2645 2625 2624 2634 2622 2621 2623 2620 2619 2618 2617 2616 2630 2636 2633 2683 1731 
	}
}
kheionai={
	location=1741
	outgoing={
		name="amadia"
		path={
			1556 1555 
		}
		control={
			1057.000000 248.000000 1141.000000 398.000000 986.000000 582.000000 1050.000000 668.000000 1116.000000 700.000000 
		}
	}
	members={
		2750 2751 2748 2747 2746 2779 2780 2752 2753 2782 2744 2778 2743 2745 2777 2772 2738 2739 2773 2775 2774 2776 2785 2737 2771 2770 2769 2736 2768 2733 2767 2764 2732 2754 2786 2766 2765 2762 2763 2731 2760 2755 2761 2730 2758 2756 2759 2728 2727 2726 2734 2735 2718 2725 2724 2681 2680 2679 2695 2678 2696 2700 2677 2706 2676 2719 2720 2721 2722 2599 2600 2723 2596 2597 2598 2670 2669 2668 2671 2673 2698 2699 2707 2675 2674 2595 2714 2672 2708 2709 2713 1741 
	}
}
amadia={
	location=1556
	outgoing={
		name="soruin"
		path={
			1558 1438 
		}
		control={
			1229.000000 856.000000 
		}
	}
	members={
		2400 2399 2398 2397 2396 2391 2392 2393 2390 2389 2388 2386 2401 2405 2417 2446 2406 2413 2412 2411 2409 2407 2408 2402 2403 2404 2418 2419 2420 2414 2415 2431 2445 2423 2443 2427 2444 2421 2422 2428 2424 2429 2430 2439 2432 2441 2447 2440 2433 2434 2436 2435 2438 2442 2448 2451 2452 2453 2454 2416 2385 2458 2457 1195 2455 2382 2456 2387 2383 2384 2360 2361 2362 1556 1554 2170 2174 
	}
}
leechden={
	location=1511
	outgoing={
		name="banished_isles"
		path={
			939 934 
		}
		control={
			1909.000000 888.000000 2033.000000 1159.000000 
		}
	}
	outgoing={
		name="soruin"
		path={
			1558 1438 
		}
		control={
			1737.000000 784.000000 1614.000000 871.000000 1474.000000 866.000000 
		}
	}
	members={
		2211 2212 2210 2213 2207 2185 2206 2209 2214 2216 2217 2228 2229 2222 2395 2218 2219 2221 2220 2265 2225 2282 2226 2227 2233 2223 2224 2234 2232 2231 1511 
	}
}
soruin={
	location=1438
	color={
		87 170 97 
	}
	outgoing={
		name="ruined_sea"
		path={
			1527 
		}
		control={
			1425.000000 970.000000 
		}
	}
	members={
		1306 2175 2177 2176 2178 2180 2199 2179 2190 2191 2192 2186 2187 2181 2182 2197 2198 2359 2189 2188 2193 2195 2196 2201 2202 2203 2204 2205 2183 2184 2355 2354 2394 2352 2353 2351 2357 2356 2358 2348 2349 2350 2215 1438 2169 1071 1072 1073 1074 2091 
	}
}
cheshoshmar={
	location=1528
	color={
		55 55 55 
	}
	outgoing={
		name="trollsbay"
		path={
			1519 
		}
		control={
			1239.000000 1205.000000 1288.000000 1224.000000 
		}
	}
	members={
		1934 1935 1936 1933 1949 1943 1937 1938 1940 1865 1925 1939 1941 1930 1951 1942 1948 1944 1955 1947 1876 1945 1946 1870 1868 1872 1960 1130 1528 1052 1053 1054 1504 1102 1104 1105 1106 1099 1098 
	}
}
trollsbay={
	location=1519
	color={
		106 206 255 
	}
	outgoing={
		name="sella"
		path={
			1517 
		}
		control={
			1413.000000 1327.000000 
		}
	}
	outgoing={
		name="ruined_sea"
		path={
			1527 
		}
		control={
			1413.000000 1228.000000 
		}
	}
	members={
		1051 1020 2449 1021 1959 1024 1023 1132 1131 1025 1956 2476 2563 1027 1028 1873 1031 1901 1026 1953 2685 1867 1029 1032 1030 2410 1035 1036 1952 1033 1958 1037 1046 2614 1049 1048 1047 1869 1041 1042 1954 1034 1039 1038 1043 1044 1880 1040 1045 1866 1050 2741 1519 
	}
}
sella={
	location=1517
	color={
		213 54 36 
	}
	outgoing={
		name="dalaire"
		path={
			1576 
		}
		control={
			1607.000000 1324.000000 1692.000000 1410.000000 1680.000000 1540.000000 1666.000000 1648.000000 
		}
	}
	outgoing={
		name="banished_isles"
		path={
			1504 
		}
		control={
			1607.000000 1324.000000 1766.000000 1415.000000 1915.000000 1326.000000 
		}
	}
	outgoing={
		name="westport"
		path={
			112 85 
		}
		control={
			1607.000000 1324.000000 1766.000000 1415.000000 1988.000000 1372.000000 2355.000000 1543.000000 
		}
	}
	members={
		1124 2548 1110 1111 1996 2459 1995 1123 1126 1128 1129 1127 1961 2609 1121 2437 1998 1120 1999 2283 1991 1019 1022 1871 1018 1992 1117 2538 2450 1116 1114 1012 1119 1517 1015 1014 1013 1016 1113 2557 1115 2208 926 927 925 
	}
}
ruined_sea={
	location=1527
	color={
		73 124 154 
	}
	outgoing={
		name="dalaire"
		path={
			1576 
		}
		control={
			1632.000000 1100.000000 1651.000000 1181.000000 1622.670044 1250.339966 1614.000000 1311.000000 1692.000000 1410.000000 1680.000000 1540.000000 1666.000000 1648.000000 
		}
	}
	outgoing={
		name="banished_isles"
		path={
			1504 
		}
		control={
			1692.000000 1083.000000 1874.000000 1025.000000 1992.000000 1112.000000 2018.000000 1205.000000 
		}
	}
	members={
		1075 1076 1077 1078 1079 1080 1082 1081 1083 1084 1085 1086 1087 1101 1103 1088 1089 1090 1091 1092 1093 1096 1094 1095 1097 1006 1007 1008 1055 1058 1059 1062 1063 2125 2137 1221 2788 2135 1017 1527 1100 
	}
}
dalaire={
	location=1576
	color={
		73 96 154 
	}
	outgoing={
		name="serpentshead"
		path={
			1322 696 
		}
		control={
			1918.000000 1701.000000 2281.000000 1800.000000 2548.000000 1969.000000 2718.000000 1891.000000 
		}
	}
	outgoing={
		name="dragon_coast"
		path={
			1294 177 
		}
		control={
			2023.000000 1648.000000 2386.000000 1763.000000 2547.000000 1689.000000 2621.000000 1676.000000 
		}
	}
	members={
		924 949 950 951 2787 1205 1202 1203 1204 1208 1207 1210 1209 1212 1211 2851 2852 2846 2847 2845 2849 1201 2848 2853 1217 1215 1214 1213 1206 1218 1224 1226 1233 1232 1219 1223 1220 1225 1222 1229 1231 2789 2790 2791 2792 2793 2794 2795 2796 1241 1240 1238 1237 1236 1200 1216 1199 1744 1743 1242 2850 1239 1576 
	}
}
banished_isles={
	location=1504
	color={
		202 117 32 
	}
	outgoing={
		name="akan"
		path={
			1300 402 
		}
		control={
			2068.000000 1211.000000 2213.000000 1211.000000 2346.000000 1251.000000 2508.000000 1266.000000 2690.000000 1376.000000 
		}
	}
	outgoing={
		name="bay_of_wines"
		path={
			1504 
		}
		control={
			2068.000000 1211.000000 2213.000000 1211.000000 2346.000000 1251.000000 2508.000000 1266.000000 2673.000000 1384.000000 2731.000000 1430.000000 
		}
	}
	members={
		938 933 932 934 935 936 937 942 939 941 940 931 930 929 928 943 944 945 946 947 948 1002 1003 1004 1005 1011 1010 1009 1056 1057 1061 1060 1070 1069 1068 1067 1066 1065 1064 2126 2230 2828 2124 2093 1108 1107 1504 
	}
}
deepwoods={
	location=3023
	color={
		25 75 0 
	}
	inland=yes
	outgoing={
		name="marrhold"
		path={
			643 640 
		}
		control={
			3208.000000 1548.000000 3193.000000 1551.000000 3185.000000 1555.000000 3189.000000 1568.000000 3196.000000 1586.000000 
		}
	}
	outgoing={
		name="harpylen"
		path={
			643 640 
		}
		control={
			3236.000000 1526.000000 3258.000000 1529.000000 3271.000000 1525.000000 3269.000000 1518.000000 3276.000000 1510.000000 3292.000000 1499.000000 3300.000000 1495.000000 3299.000000 1487.000000 3334.000000 1474.000000 3348.000000 1468.000000 3380.000000 1442.000000 3414.000000 1408.000000 
		}
	}
	outgoing={
		name="flooded_coast"
		path={
			643 640 
		}
		control={
			3209.000000 1542.000000 3193.000000 1537.000000 3183.000000 1532.000000 3177.000000 1525.000000 3171.000000 1521.000000 3163.000000 1526.000000 3156.000000 1534.000000 3152.000000 1540.000000 3145.000000 1533.000000 3143.000000 1529.000000 3143.000000 1521.000000 3139.000000 1511.000000 3117.000000 1508.000000 3107.000000 1493.000000 3116.000000 1491.000000 3121.000000 1489.000000 3108.000000 1483.000000 3100.000000 1478.000000 3091.000000 1479.000000 3085.000000 1476.000000 3076.000000 1477.000000 3074.000000 1469.000000 3071.000000 1463.000000 3060.000000 1463.000000 3044.000000 1462.000000 
		}
	}
	outgoing={
		name="serpentreach"
		path={
			643 640 
		}
		control={
			3236.000000 1526.000000 3252.000000 1518.000000 3246.000000 1509.000000 3251.000000 1492.000000 3262.000000 1479.000000 3256.000000 1470.000000 3257.000000 1464.000000 
		}
	}
	members={
		3004 3005 3006 3007 3008 3009 3010 3011 3012 3013 3014 3015 3016 3017 3018 3019 3020 3021 3022 3024 3023 3025 3026 3027 3028 3029 3030 3031 3032 3033 3034 3035 3036 3037 3038 3039 3040 3041 3042 3043 3044 3045 3046 3047 3048 3049 3050 3051 3052 3053 3054 3055 3056 3057 3058 3059 3060 3061 3062 3063 3064 3065 3066 3067 3068 3069 3070 3071
	}
}
marrhold={
	location=888
	color={
		167 165 135 
	}
	inland=yes
	outgoing={
		name="marches"
		path={
			811 
		}
		control={
			3157.000000 1592.000000 
		}
	}
	outgoing={
		name="castonath"
		path={
			840 
		}
		control={
			3150.000000 1630.000000 
		}
	}
	members={
		895 896 897 893 894 883 891 888 889 890 892 886 887 885 875 876 877 856 857 4097 
	}
}
upper_alen={
	location=872
	color={
		98 101 167 
	}
	inland=yes
	outgoing={
		name="castonath"
		path={
			858 865 
		}
		control={
			3151.000000 1667.000000 
		}
	}
	members={
		860 861 858 864 869 865 866 874 873 868 870 863 872 878 879 867 871 880 881 882 884 859 862 
	}
}
golden_highway={
	location=2901
	color={
		255 138 12 
	}
	outgoing={
		name="sareyand"
		path={
			638 
		}
		control={
			3680.000000 1290.000000 3647.000000 1270.000000 3615.000000 1265.000000 3595.000000 1270.000000 3550.000000 1245.000000 
		}
	}
	outgoing={
		name="seghdihr"
		path={
			638 
		}
		control={
			3734.000000 1341.000000 3667.000000 1329.000000 3633.000000 1324.000000 3615.000000 1302.000000 
		}
	}
	members={
		2900 2901 2902 2903 2904 2905 2906 2907 2908 2909 2910 2911 2912 2913 2915 2916 2917 2918 2919 2920 2921 2922 2923 2924 2925 2926 2927 2928 2929 2930 1348 
	}
}
seghdihr={
	location=4124
	color={
		130 150 200 
	}
	inland=yes
	outgoing={
		name="sareyand"
		path={
			643 640 
		}
		control={
			3611.000000 1284.000000 3595.000000 1270.000000 3550.000000 1245.000000 
		}
	}
	outgoing={
		name="ernatvir"
		path={
			4027 2889 2886 2883 2881 2879 2878 2932 2876 
		}
		control={
			3603.000000 1323.000000 3534.000000 1326.000000 3472.000000 1353.000000 3431.000000 1410.000000 3405.639893 1442.550049 3386.000000 1486.000000 3348.000000 1499.000000 3340.000000 1528.000000 3315.000000 1569.000000 3323.000000 1590.000000 
		}
	}
	members={
		2914 4218 4090 4114 4113 4223 4219 4220 4112 4111 4222 4091 4221 4231 2895 2894 4094 4092 4095 4106 4089 4087 4086 4107 4108 4109 2893 2892 4027 4110 4088 4230 4082 4216 4124 4085 4083 4081 2891 2890 2889 4079 4084 4080 4239 4078 4214 4215 4229 4228 4227 2888 2887 2886 4028 2885 4217 
	}
}
harpylen={
	location=665
	color={
		221 117 182 
	}
	inland=yes
	outgoing={
		name="ovdal_tungr"
		path={
			526 
		}
		control={
			3336.000000 1404.000000 3262.000000 1379.000000 3222.000000 1351.020020 
		}
	}
	outgoing={
		name="bay_of_mirrors"
		path={
			1310 588 
		}
		control={
			3343.000000 1324.000000 3312.000000 1307.020020 3292.000000 1275.020020 
		}
	}
	outgoing={
		name="bulwar"
		path={
			601 
		}
		control={
			3434.000000 1362.000000 3425.000000 1330.000000 3416.000000 1304.000000 3387.000000 1310.000000 
		}
	}
	members={
		653 655 656 660 663 661 664 665 666 667 668 669 671 670 672 673 674 675 676 677 678 654 652 659 662 658 657 4117 
	}
}
ovdal_tungr={
	location=1312
	color={
		77 198 223 
	}
	outgoing={
		name="bay_of_mirrors"
		path={
			1311 
		}
		control={
			3203.500000 1337.000000 
		}
	}
	outgoing={
		name="eborthil"
		path={
			1313 1307 
		}
		control={
			3061.000000 1361.000000 3006.000000 1384.000000 
		}
	}
	outgoing={
		name="serpentreach"
		path={
			1313 1307 
		}
		control={
			3180.000000 1382.000000 3179.000000 1405.000000 3212.000000 1432.000000 3226.000000 1448.000000 3251.000000 1450.000000 
		}
	}
	members={
		517 518 519 520 521 522 523 525 526 527 528 529 530 531 532 533 534 535 536 537 538 539 540 541 542 543 544 545 581 547 550 650 649 651 548 1312 
	}
}
serpentreach={
	location=4100
	color={
		70 240 160 
	}
	inland=yes
	outgoing={
		name="flooded_coast"
		path={
			2962 2943 2956 4238 449 
		}
		control={
			3224.000000 1455.000000 3196.000000 1431.000000 3171.000000 1452.000000 3151.000000 1449.000000 3132.000000 1443.000000 3099.000000 1465.000000 
		}
	}
	outgoing={
		name="ernatvir"
		path={
			4240 2981 2878 2932 2876 
		}
		control={
			3264.000000 1450.000000 3329.000000 1450.000000 3344.000000 1446.000000 3346.000000 1491.000000 3339.000000 1529.000000 3314.000000 1569.000000 3323.000000 1589.000000 
		}
	}
	members={
		4039 4038 4040 4042 4041 2949 4037 4036 2951 2952 2985 2984 4035 2980 2981 2978 2982 2979 4099 2975 2970 2983 2977 2974 2973 2968 4098 2976 2969 2971 2972 4126 4240 2967 4100 2962 2966 2965 2964 4127 2961 2959 2958 2960 2947 2948 2950 4093 2946 2945 2944 2943 2942 2955 2954 2956 4032 4031 2957 4034 4033 4030 2987 4238 2941 2939 2940 
	}
}
ernatvir={
	location=2931
	color={
		200 200 200 
	}
	inland=yes
	outgoing={
		name="west_dwarovar"
		path={
			2873 4043 
		}
		control={
			3300.000000 1614.000000 3289.000000 1616.000000 3280.000000 1650.000000 3260.000000 1701.000000 
		}
	}
	outgoing={
		name="amldihr"
		path={
			2990 2992 4128 
		}
		control={
			3322.000000 1614.000000 3322.000000 1638.000000 3339.000000 1659.000000 3364.000000 1668.000000 
		}
	}
	outgoing={
		name="marrhold"
		path={
			2990 2992 4128 
		}
		control={
			3301.000000 1614.000000 3279.000000 1616.000000 3234.000000 1612.000000 
		}
	}
	members={
		2874 2934 4065 2986 4052 4053 2931 2988 4150 4062 2989 4213 4212 4165 2876 4104 2932 2875 4067 4066 4061 4060 4059 4058 4057 4076 4075 4077 4105 4056 4237 4068 4069 4070 4071 4072 4073 2877 2937 2878 4101 4102 4103 2879 2880 2963 2881 2882 2883 4029 2884 
	}
}
west_dwarovar={
	location=2868
	color={
		70 70 200 
	}
	inland=yes
	outgoing={
		name="amldihr"
		path={
			2933 4122 
		}
		control={
			3264.000000 1703.000000 3274.000000 1683.000000 3309.000000 1705.000000 
		}
	}
	outgoing={
		name="castonath"
		path={
			2863 847 
		}
		control={
			3226.000000 1713.000000 3199.000000 1726.000000 3141.000000 1722.000000 
		}
	}
	members={
		2897 2896 2863 2864 2935 2865 2898 2899 2870 2869 4163 2868 4022 2995 4023 4025 4024 4026 4021 2866 2867 2871 4074 4096 4054 4044 4045 4046 4047 4048 4049 4055 4043 2872 2933 2873 4050 4552 4553 4236
	}
}
castonath={
	location=840
	color={
		222 222 222 
	}
	inland=yes
	outgoing={
		name="middle_alen"
		path={
			831 832 833 754 
		}
		control={
			3059.000000 1697.000000 3034.000000 1724.000000 3006.000000 1716.000000 
		}
	}
	outgoing={
		name="silvermere"
		path={
			785 
		}
		control={
			3095.000000 1651.000000 
		}
	}
	members={
		837 839 754 842 747 848 840 843 845 847 841 853 855 746 743 850 849 846 852 851 844 854 755 836 828 830 831 832 833 827 
	}
}
silvermere={
	location=785
	color={
		200 200 255 
	}
	inland=yes
	outgoing={
		name="ibevar"
		path={
			357 352 349 
		}
		control={
			3014.000000 1614.000000 
		}
	}
	outgoing={
		name="middle_alen"
		path={
			729 
		}
		control={
			3024.000000 1646.000000 3010.000000 1686.000000 
		}
	}
	outgoing={
		name="marches"
		path={
			811 817 
		}
		control={
			3071.000000 1594.000000 
		}
	}
	members={
		767 756 834 835 829 821 825 823 820 809 783 788 790 794 795 796 785 786 787 789 784 764 766 765 792 781 782 772 773 774 768 769 770 771 776 780 779 778 777 775 422 
	}
}
marches={
	location=811
	color={
		230 216 166 
	}
	inland=yes
	outgoing={
		name="gablaine"
		path={
			1303 
		}
		control={
			3102.000000 1562.000000 3077.000000 1540.000000 
		}
	}
	members={
		802 803 805 807 791 797 798 800 808 806 812 811 815 814 813 810 816 817 818 819 824 826 799 801 793 822 
	}
}
middle_alen={
	location=229
	color={
		20 105 123 
	}
	inland=yes
	outgoing={
		name="lower_alen"
		path={
			225 221 
		}
		control={
			2964.000000 1722.000000 2952.000000 1737.000000 2927.000000 1751.000000 2896.000000 1738.000000 
		}
	}
	outgoing={
		name="bay_of_chills"
		path={
			1256 701 
		}
		control={
			2959.000000 1737.000000 
		}
	}
	members={
		229 230 232 231 710 725 726 729 749 730 732 727 750 728 751 753 758 759 761 763 762 741 745 742 744 748 760 757 
	}
}
ibevar={
	location=357
	color={
		154 237 233 
	}
	inland=yes
	outgoing={
		name="lower_alen"
		path={
			239 
		}
		control={
			2929.000000 1669.000000 
		}
	}
	outgoing={
		name="esmaraine"
		path={
			266 
		}
		control={
			2934.000000 1580.000000 
		}
	}
	members={
		261 351 352 360 359 353 354 355 356 361 350 253 236 252 349 238 244 334 250 256 342 258 357 358 257 248 245 246 247 
	}
}
northern_pass={
	location=4182
	color={
		200 200 100 
	}
	inland=yes
	outgoing={
		name="amldihr"
		path={
			4193 4145 4149 
		}
		control={
			3320.000000 1756.000000 3350.000000 1728.000000 3329.000000 1722.000000 
		}
	}
	outgoing={
		name="vrorensbay"
		path={
			991 990 
		}
		control={
			3217.000000 1780.000000 3205.000000 1806.000000 3179.000000 1813.000000 3164.000000 1823.000000 3148.000000 1818.000000 3148.000000 1798.000000 3148.000000 1784.000000 3129.000000 1777.000000 3126.000000 1763.000000 3114.000000 1757.000000 3107.000000 1752.000000 3091.000000 1765.000000 3090.000000 1782.000000 3079.000000 1794.000000 
		}
	}
	members={
		4211 4210 4209 4208 4207 4206 4205 4204 4203 4201 4198 4202 4200 4199 4197 4195 4196 4191 4194 4192 4193 4190 4189 4183 4182 4181 4188 4187 4185 4186 4180 4184 4176 4174 4175 4173 4171 
	}
}
vrorensbay={
	location=1286
	color={
		209 209 255 
	}
	outgoing={
		name="bay_of_chills"
		path={
			1256 
		}
		control={
			2998.000000 1815.000000 
		}
	}
	outgoing={
		name="redgarhavn"
		path={
			1289 
		}
		control={
			3009.000000 1861.000000 
		}
	}
	members={
		734 735 736 737 738 739 740 987 988 989 990 991 992 1286 
	}
}
redgarhavn={
	location=1289
	color={
		222 87 87 
	}
	outgoing={
		name="serpentshead"
		path={
			1322 696 
		}
		control={
			2917.000000 1883.000000 2877.000000 1856.000000 2847.000000 1851.000000 2818.000000 1855.000000 
		}
	}
	members={
		972 973 974 975 976 977 978 979 980 981 982 983 984 985 986 2829 2830 2831 2832 2833 2834 2835 1289 
	}
}
bay_of_chills={
	location=1256
	color={
		158 209 209 
	}
	outgoing={
		name="serpentshead"
		path={
			1322 696 
		}
		control={
			2953.000000 1794.000000 2944.000000 1820.000000 2893.000000 1846.000000 2847.000000 1851.000000 2818.000000 1855.000000 
		}
	}
	members={
		702 723 705 704 706 722 721 709 712 701 713 707 711 716 714 715 718 719 717 733 720 731 752 1256 
	}
}
sidaett={
	location=967
	color={
		76 76 209 
	}
	outgoing={
		name="serpentshead"
		path={
			1322 696 
		}
		control={
			2850.000000 1931.000000 2829.000000 1908.000000 2826.000000 1874.000000 
		}
	}
	members={
		957 958 961 962 963 964 965 966 967 968 969 970 971 998 
	}
}
serpentshead={
	location=1322
	color={
		186 223 145 
	}
	outgoing={
		name="dragon_coast"
		path={
			1294 177 
		}
		control={
			2778.000000 1866.000000 2723.000000 1837.000000 2681.729980 1780.689941 2549.000000 1754.000000 2560.000000 1689.000000 2621.000000 1676.000000 
		}
	}
	members={
		188 190 199 198 191 345 194 192 193 197 200 694 695 708 698 697 696 699 700 703 724 952 953 954 955 956 997 959 960 1000 993 994 995 996 999 1322 
	}
}
lower_alen={
	location=222
	color={
		64 95 184 
	}
	inland=yes
	outgoing={
		name="dameshead"
		path={
			216 151 
		}
		control={
			2846.000000 1668.000000 
		}
	}
	members={
		224 237 239 243 338 221 222 223 341 346 337 220 339 225 240 226 340 217 218 201 202 203 204 195 196 227 228 241 343 344 242 
	}
}
dragon_coast={
	location=1294
	color={
		68 97 136 
	}
	outgoing={
		name="viswall"
		path={
			66 63 
		}
		control={
			2714.000000 1663.000000 2693.000000 1617.000000 
		}
	}
	outgoing={
		name="westport"
		path={
			112 85 
		}
		control={
			2620.000000 1599.000000 2555.000000 1506.000000 
		}
	}
	members={
		170 167 145 148 144 169 146 177 178 176 175 172 173 174 181 171 179 180 182 184 183 185 187 186 189 129 142 138 140 122 1294 1001 4643 4644 4645 4646
	}
}
viswall={
	location=166
	color={
		169 127 74 
	}
	inland=yes
	outgoing={
		name="dameshead"
		path={
			216 151 
		}
		control={
			2747.000000 1591.000000 2770.000000 1608.000000 2793.000000 1613.000000 
		}
	}
	outgoing={
		name="westport"
		path={
			112 85 
		}
		control={
			2718.000000 1583.000000 2678.000000 1581.000000 2627.000000 1553.000000 2566.000000 1502.000000 
		}
	}
	members={
		63 66 131 132 136 162 163 161 164 160 159 166 139 137 133 158 152 135 134 7 348 206 210 103 147 165 149 76 12 150 211 213 117 118 71 141 143 
	}
}
westport={
	location=1263
	color={
		191 87 197 
	}
	outgoing={
		name="bay_of_wines"
		path={
			223 221 1295 1296 1297 
		}
		control={
			2626.000000 1462.000000 2670.000000 1401.000000 2731.000000 1430.000000 
		}
	}
	members={
		58 102 104 105 78 126 128 123 124 125 96 98 75 92 107 87 119 112 110 111 113 121 120 115 116 106 83 82 90 100 91 85 88 99 93 94 127 1263 130 1 
	}
}
bay_of_wines={
	location=1292
	color={
		142 65 92 
	}
	outgoing={
		name="anbenncost"
		path={
			8 52 
		}
		control={
			2759.000000 1446.000000 2802.000000 1429.000000 2822.000000 1452.000000 2814.000000 1474.020020 2820.000000 1496.000000 
		}
	}
	members={
		49 41 101 97 81 84 86 38 72 73 59 33 32 34 40 64 62 70 77 114 108 79 80 95 67 74 68 61 69 89 20 31 47 48 1292 
	}
}
gablaine={
	location=433
	color={
		154 154 154 
	}
	inland=yes
	outgoing={
		name="flooded_coast"
		path={
			1303 
		}
		control={
			3040.000000 1547.000000 3061.000000 1491.000000 
		}
	}
	outgoing={
		name="arannen"
		path={
			904 
		}
		control={
			3009.000000 1558.000000 2991.330078 1509.800049 
		}
	}
	members={
		424 427 428 426 425 430 441 440 439 438 431 432 433 434 435 437 436 429 804 443 442 
	}
}
flooded_coast={
	location=1303
	color={
		16 135 99 
	}
	outgoing={
		name="eborthil"
		path={
			380 
		}
		control={
			2995.000000 1425.000000 2966.159912 1383.079956 
		}
	}
	outgoing={
		name="arannen"
		path={
			904 
		}
		control={
			2997.000000 1454.000000 
		}
	}
	members={
		446 450 445 451 447 448 449 409 410 411 412 413 416 420 452 506 507 508 509 510 511 512 513 514 515 516 921 922 444 421 1303 
	}
}
arannen={
	location=318
	color={
		51 69 168 
	}
	inland=yes
	outgoing={
		name="esmaraine"
		path={
			266 901 
		}
		control={
			2909.000000 1528.000000 
		}
	}
	outgoing={
		name="eborthil"
		path={
			8 52 
		}
		control={
			2928.000000 1442.000000 2958.000000 1409.020020 2957.000000 1380.020020 
		}
	}
	outgoing={
		name="anbenncost"
		path={
			8 52 
		}
		control={
			2904.000000 1498.000000 2866.000000 1484.000000 2842.000000 1496.000000 2822.000000 1501.000000 
		}
	}
	members={
		303 304 305 306 294 300 332 295 307 318 907 903 312 326 321 323 324 322 325 904 418 419 313 316 317 319 315 913 414 415 327 298 898 906 299 918 919 417 920 579 923 
	}
}
esmaraine={
	location=266
	color={
		187 128 165 
	}
	inland=yes
	outgoing={
		name="dameshead"
		path={
			266 
		}
		control={
			2896.000000 1596.000000 
		}
	}
	members={
		266 254 262 260 267 333 274 911 308 309 302 901 909 273 272 271 900 280 916 268 263 270 311 314 320 310 912 423 301 297 902 279 44 576 917 
	}
}
akan={
	location=1300
	color={
		204 204 204 
	}
	outgoing={
		name="eborthil"
		path={
			380 365 382 
		}
		control={
			2836.000000 1348.000000 2878.000000 1353.000000 
		}
	}
	members={
		402 389 388 387 386 407 385 384 406 397 398 396 383 395 401 392 393 390 391 400 1300 
	}
}
sareyand={
	location=638
	color={
		245 207 137 
	}
	inland=yes
	outgoing={
		name="bulwar"
		path={
			601 
		}
		control={
			3483.000000 1282.000000 3428.000000 1277.020020 3389.000000 1300.000000 
		}
	}
	members={
		625 626 627 629 630 632 633 631 634 636 637 635 639 638 640 641 642 643 644 647 648 645 646 558 585 681 684 583 571 566 
	}
}
bulwar={
	location=601
	color={
		248 193 92 
	}
	inland=yes
	outgoing={
		name="brasan"
		path={
			565 1398 
		}
		control={
			3344.000000 1287.000000 3298.000000 1249.020020 3261.000000 1232.020020 
		}
	}
	outgoing={
		name="bay_of_mirrors"
		path={
			1310 588 
		}
		control={
			3295.000000 1275.000000 
		}
	}
	members={
		594 593 590 591 603 610 599 601 602 604 611 600 605 606 607 612 690 628 624 608 613 609 614 615 616 617 622 621 620 623 618 619 
	}
}
brasan={
	location=1309
	color={
		147 207 236 
	}
	outgoing={
		name="mothers_sorrow"
		path={
			1305 475 463 
		}
		control={
			3215.000000 1236.000000 3167.000000 1268.020020 3111.000000 1245.020020 
		}
	}
	members={
		496 495 505 497 498 499 500 501 578 573 564 565 567 572 561 570 568 584 679 680 682 683 685 597 596 598 693 692 686 687 691 688 689 595 1309 
	}
}
golkora={
	location=481
	color={
		180 137 50 
	}
	inland=yes
	outgoing={
		name="mothers_sorrow"
		path={
			1305 475 463 
		}
		control={
			3179.000000 1054.000000 3143.000000 1091.020020 3118.770020 1155.250000 3086.000000 1190.000000 
		}
	}
	members={
		479 480 481 482 483 484 486 487 485 488 489 
	}
}
mothers_sorrow={
	location=1305
	color={
		255 128 64 
	}
	outgoing={
		name="eborthil"
		path={
			1296 380 
		}
		control={
			3016.000000 1290.000000 2962.000000 1307.000000 2934.000000 1331.020020 2900.000000 1346.000000 2896.000000 1357.000000 
		}
	}
	members={
		455 456 457 460 461 462 503 463 546 464 466 467 468 465 470 490 492 493 494 469 471 472 473 491 502 474 592 475 476 477 478 504 1305 
	}
}
eborthil={
	location=1296
	color={
		214 161 50 
	}
	outgoing={
		name="anbenncost"
		path={
			8 52 
		}
		control={
			2862.000000 1378.000000 2809.000000 1408.020020 2822.000000 1452.020020 2814.000000 1474.020020 2820.000000 1496.000000 
		}
	}
	members={
		39 373 374 380 369 35 379 36 377 375 376 378 370 371 288 290 291 292 405 382 403 399 404 381 453 458 365 367 368 372 366 408 362 363 364 293 289 454 459 838 1296 
	}
}
anbenncost={
	location=1270
	color={
		84 162 167 
	}
	outgoing={
		name="dameshead"
		path={
			1252 216 151 234 
		}
		control={
			2796.000000 1518.000000 2787.000000 1524.000000 2793.000000 1554.000000 2836.000000 1575.000000 
		}
	}
	members={
		10 13 15 17 28 23 24 27 26 43 46 14 42 57 11 8 168 4 2 9 50 51 45 25 276 330 37 277 29 52 53 54 55 56 283 285 286 331 287 282 284 329 296 278 328 281 1270 16 21 30 22 19 910 899 569 394 109 587 
	}
}
dameshead={
	location=1252
	color={
		201 185 131 
	}
	members={
		216 251 235 219 249 233 234 214 215 336 212 18 153 154 156 157 65 151 60 155 205 208 3 5 275 269 265 259 255 264 207 209 347 905 915 914 908 335 6 575 524 1252 
	}
	end=yes
}
bay_of_mirrors={
	location=1310
	color={
		207 98 123 
	}
	members={
		549 551 552 553 554 555 556 557 559 560 562 563 574 577 580 586 588 589 582 1310 
	}
	end=yes
}
amldihr={
	location=4119
	color={
		50 75 100 
	}
	inland=yes
	members={
		2990 4141 4144 2991 4063 4064 2992 2993 2996 4147 2997 4148 4130 2998 2999 3000 3001 3002 3003 4020 4118 4125 4129 4142 4131 4143 4121 4122 4128 4119 4149 4120 4123 4151 4158 4152 4164 4166 4145 2994 4051
	}
	end=yes
}
