#134 - Wien

owner = A01
controller = A01
add_core = A01
add_core = A96
culture = redfoot_halfling
religion = regent_court
hre = no
base_tax = 1
base_production = 1
trade_goods = grain
base_manpower = 1
capital = "" 
is_city = yes








