# No previous file for Allt
owner = Z17
controller = Z17
add_core = Z17
culture = fjord_troll
religion = animism

hre = no

base_tax = 1
base_production = 1
base_manpower = 1

trade_goods = fish

capital = ""

is_city = yes






