adventurer_1 = {
	slot = 1
	generic = no
	ai = yes
	potential = {
		capital_scope = {
			OR = {
				region = forlorn_vale_region
				superregion = escann_superregion
			}
		}
		has_reform = adventurer_reform
	}
	
	ADV_growing_population = {
		icon = mission_rice_field
		generic = no
		ai = yes
		position = 1
		trigger = {
			total_development = 150
			adm_power = 150
		}
		effect = {
			add_adm_power = -150
			capital_scope = {
				add_base_tax = 3
				add_base_production = 1
				add_base_manpower = 1
			}
			random_owned_province = {
				limit = {
					is_core = ROOT
					is_capital = no
				}
				add_base_tax = 2
			}
			random_owned_province = {
				limit = {
					is_core = ROOT
					is_capital = no
				}
				add_base_production = 2
			}
			random_owned_province = {
				limit = {
					is_core = ROOT
					is_capital = no
				}
				add_base_manpower = 2
			}
		}
	}
	
	ADV_jewel = {
		icon = mission_rb_weather_the_reformation
		generic = no
		ai = yes
		position = 2
		trigger = {
			num_of_provinces_in_states = 8
			gems = 1
		}
		effect = {
			add_years_of_income = -0.5
			random_owned_province = {
				limit = {
					trade_goods = gems
				}
				add_base_tax = 1
				add_base_production = 3
				add_permanent_province_modifier = {
					name = adv_gems
					duration = 18250
				}
			}
		}
	}
	
	ADV_monetary_system = {
		icon = mission_african_gold
		generic = no
		ai = yes
		position = 3
		trigger = {
			num_of_provinces_in_states = 3
			gold = 1
		}
		effect = {
			add_years_of_income = -0.5
			random_owned_province = {
				limit = {
					trade_goods = gold
				}
				add_base_tax = 3
				add_base_production = 1
				add_permanent_province_modifier = {
					name = adv_bank
					duration = 18250
				}
			}
		}
	}
	
	ADV_farm_of_country = {
		icon = mission_rb_import_potatoes
		generic = no
		ai = yes
		position = 4
		trigger = {
			num_of_provinces_in_states = 5
			grain = 3
		}
		effect = {
			add_years_of_income = -0.5
			random_owned_province = {
				limit = {
					trade_goods = grain
				}
				add_base_manpower = 2
				add_base_production = 2
				add_permanent_province_modifier = {
					name = adv_grain_production
					duration = 18250
				}
			}
			random_owned_province = {
				limit = {
					trade_goods = grain
				}
				add_base_manpower = 2
				add_base_production = 2
				add_permanent_province_modifier = {
					name = adv_grain_production
					duration = 18250
				}
			}
			random_owned_province = {
				limit = {
					trade_goods = grain
				}
				add_base_manpower = 2
				add_base_production = 2
				add_permanent_province_modifier = {
					name = adv_grain_production
					duration = 18250
				}
			}
		}
	}
	
	ADV_great_forge = {
		icon = mission_asian_trader
		generic = no
		ai = yes
		position = 5
		trigger = {
			num_of_provinces_in_states = 3
			iron = 1
		}
		effect = {
			add_years_of_income = -0.5
			random_owned_province = {
				limit = {
					trade_goods = iron
				}
				add_base_production = 3
				add_permanent_province_modifier = {
					name = adv_big_forge
					duration = 18250
				}
			}
		}
	}
}

adventurer_2 = {
	slot = 2
	generic = no
	ai = yes
	potential = {
		capital_scope = {
			OR = {
				region = forlorn_vale_region
				superregion = escann_superregion
			}
		}
		has_reform = adventurer_reform
	}
	
	ADV_node_power = {
		icon = mission_rb_conquer_bengal
		generic = no
		ai = yes
		position = 2
		trigger = {
			home_trade_node = {
				trade_share = {
					country = ROOT
					share = 50
				}
			}
		}
		effect = {
			add_country_modifier = {
				name = adv_home_trade
				duration = 18250
			}
		}
	}
	
	ADV_trade_power = {
		icon = mission_rb_scottish_the_darien_scheme
		generic = no
		ai = yes
		position = 2
		required_missions = {
            ADV_node_power
        }
		trigger = {
			trade_income_percentage = 0.4
		}
		effect = {
			capital_scope = {
				add_province_modifier = {
					name = adv_trade_powerhouse
					duration = 18250
				}
			}
		}
	}
	
	ADV_adventurer_in_workforce = {
		icon = mission_rb_rein_in_the_highland_clans
		generic = no
		ai = yes
		position = 5
		required_missions = {
            ADV_capital_region
        }
		trigger = {
			mil_power = 150
		}
		effect = {
			add_mil_power = -150
			add_country_modifier = {
				name = adv_dev
				duration = 18250
			}
		}
	}
}


adventurer_3 = {
	slot = 3
	generic = no
	ai = yes
	potential = {
		capital_scope = {
			OR = {
				region = forlorn_vale_region
				superregion = escann_superregion
			}
		}
		has_reform = adventurer_reform
	}
	ADV_forcelimit = {
		icon = mission_rb_conquer_the_highlands
		generic = no
		ai = yes
		position = 1
		trigger = {
			army_size_percentage = 0.75
		}
		effect = {
			add_country_modifier = {
				name = adv_forcelimit_modifier
				duration = 7300
			}
		}
	}
	ADV_2_prov = {
		icon = mission_rb_colonise_canada
		generic = no
		ai = yes
		position = 2
		required_missions = {
            ADV_forcelimit
        }
		trigger = {
			calc_true_if = {
				all_owned_province = {
					is_core = ROOT
				}
				amount = 2
			}
		}
		effect = {
			capital_scope = {
				add_base_tax = 1
				add_base_production = 1
				add_base_manpower = 1
			}
			random_owned_province = {
				limit = {
					is_capital = no
				}
				add_base_tax = 1
				add_base_production = 1
				add_base_manpower = 1
			}
		}
	}
	ADV_3_prov = {
		icon = mission_colonial
		generic = no
		ai = yes
		position = 3
		required_missions = {
            ADV_2_prov
        }
		trigger = {
			calc_true_if = {
				all_owned_province = {
					is_core = ROOT
				}
				amount = 3
			}
		}
		effect = {
			add_country_modifier = {
				name = adv_colonist_modifier
				duration = 18250
			}
		}
	}
	ADV_capital_region = {
		icon = mission_unite_home_region
		generic = no
		ai = yes
		position = 4
		provinces_to_highlight = {
			area_for_scope_province = {
				is_capital_of = ROOT
			}
			NOT = { owned_by = ROOT }
		}
		required_missions = {
			ADV_3_prov
        }
		trigger = {
			capital_scope = {
				area_for_scope_province = {
					type = all
					owned_by = ROOT
				}
			}
		}
		effect = {
			capital_scope = {
				every_province_in_state = {
					add_base_tax = 1
					add_base_manpower = 1
					add_base_production = 1
				}
			}
		}
	}
	
	ADV_build_frenzy = {
		icon = mission_early_game_buildings
		generic = no
		ai = yes
		position = 5
		required_missions = {
			ADV_capital_region
        }
		trigger = {
			adm = 4
		}
		effect = {
			add_country_modifier = {
				name = adv_build_modifier
				duration = 18250
			}
		}
	}
	ADV_guild_integration = {
		icon = mission_hanseatic_city
		generic = no
		ai = yes
		position = 6
		required_missions = {
			ADV_build_frenzy
			ADV_one_colon
			ADV_adventurer_in_workforce
        }
		trigger = {
			years_of_income = 4
		}
		effect = {
			add_years_of_income = -4
			capital_scope = {
				add_province_modifier = {
					name = adv_guild_integrated
					duration = 18250
				}
			}
		}
	}
}


adventurer_4 = {
	slot = 4
	generic = no
	ai = yes
	potential = {
		capital_scope = {
			OR = {
				region = forlorn_vale_region
				superregion = escann_superregion
			}
		}
		has_reform = adventurer_reform
	}
	
	ADV_prestigious_adventurer = {
		icon = mission_protect_albania
		generic = no
		ai = yes
		position = 1
		trigger = {
			prestige = 80
		}
		effect = {
			add_country_modifier = {
				name = adv_fame
				duration = 18250
			}
		}
	}
	
	ADV_war_ork = {
		icon = mission_pf_soldier
		generic = no
		ai = yes
		position = 2
		required_missions = {
			ADV_forcelimit
        }
		trigger = {
			is_in_war = {
				casus_belli = cb_civ_vs_monster
			}
		}
		effect = {
			add_country_modifier = {
				name = adv_war_ork_modifier
				duration = 18250
			}
		}
	}
	
	ADV_standing_army = {
		icon = mission_assemble_an_army
		generic = no
		ai = yes
		position = 3
		required_missions = {
			ADV_war_ork
        }
		trigger = {
			army_size = 25
		}
		effect = {
			add_mil_power = 150
			add_country_modifier = {
				name = adv_standing_army
				duration = 18250
			}
		}
	}
	
	ADV_one_colon = {
		icon = mission_expel_the_moriscos
		generic = no
		ai = yes
		position = 5
		required_missions = {
			ADV_capital_region
        }
		trigger = {
			adm_power = 300
			treasury = 100
		}
		effect = {
			add_adm_power = -300
			add_treasury = -100
			add_country_modifier = {
				name = adv_colon_modifier
				duration = 18250
			}
		}
	}
}

adventurer_5 = {
	slot = 5
	generic = no
	ai = yes
	potential = {
		capital_scope = {
			OR = {
				region = forlorn_vale_region
				superregion = escann_superregion
			}
		}
		has_reform = adventurer_reform
	}
	ADV_ally = {
		icon = mission_rb_control_the_hansa
		generic = no
		ai = yes
		position = 2
		trigger = {
			any_ally = {
				has_reform = adventurer_reform
			}
		}
		effect = {
			random_ally = {
				limit = {
					has_reform = adventurer_reform
				}
				add_opinion = {
					who = ROOT
					modifier = opinion_adv_ally
					years = 75
				}
				reverse_add_opinion = {
					who = ROOT
					modifier = opinion_adv_ally
					years = 75
				}
			}
		}
	}
	
	ADV_ally_cooperation = {
		icon = mission_unite_the_princes
		generic = no
		ai = yes
		position = 3
		required_missions = {
			ADV_ally
        }
		trigger = {
			any_ally = {
				has_reform = adventurer_reform
				
				has_opinion = {
					who = ROOT
					value = 200
				}
			}
			capital_scope = {
				area_for_scope_province = {
					type = all
					owned_by = ROOT
				}
			}
		}
		effect = {
			random_ally = {
				limit = {
					has_reform = adventurer_reform
					has_opinion = {
						who = ROOT
						value = 200
					}
				}
				capital_scope = {
					add_base_tax = 1
					add_base_production = 1
					add_base_manpower = 1
				}
			}
			capital_scope = {
				every_province_in_state = {
					add_base_tax = 1
					add_base_manpower = 1
					add_base_production = 1
				}
			}
		}
	}
	
	ADV_organize_capital = {
		icon = mission_develop_alhambra
		generic = no
		ai = yes
		position = 4
		required_missions = {
			ADV_ally_cooperation
        }
		trigger = {
			dip_power = 150
		}
		effect = {
			add_dip_power = -150
			capital_scope = {
				add_base_production = 2
				add_base_tax = 2
				add_base_manpower = 2
				add_province_modifier = {
					name = adv_administration
					duration = 18250
				}
				random_neighbor_province = {
					limit = { owned_by = ROOT }
					add_base_production = 1
					add_base_tax = 1
					add_base_manpower = 1
				}
			}
			if = {
				limit = {
					capital_scope = {
						OR = {
							NOT = {
								trade_goods = gold
								trade_goods = gems
								trade_goods = mithril
								trade_goods = damestear
							}
						}
					}
				}
				random_list = {
					40 = {
					capital_scope = { change_trade_goods = cloth }
					}
					30 = {
						capital_scope = { change_trade_goods = glass }
					}
					30 = {
						capital_scope = { change_trade_goods = paper }
					}
				}
			}
		}
	}
	
}