<?xml version="1.0" encoding="utf-8"?>
<COLLADA xmlns="http://www.collada.org/2005/11/COLLADASchema" version="1.4.1">
  <asset>
    <contributor>
      <author>Blender User</author>
      <authoring_tool>Blender 2.77.0 commit date:2016-04-05, commit time:18:12, hash:abf6f08</authoring_tool>
    </contributor>
    <created>2018-02-03T14:04:05</created>
    <modified>2018-02-03T14:04:05</modified>
    <unit name="meter" meter="1"/>
    <up_axis>Z_UP</up_axis>
  </asset>
  <library_cameras>
    <camera id="Camera-camera" name="Camera">
      <optics>
        <technique_common>
          <perspective>
            <xfov sid="xfov">49.13434</xfov>
            <aspect_ratio>1.777778</aspect_ratio>
            <znear sid="znear">0.1</znear>
            <zfar sid="zfar">100</zfar>
          </perspective>
        </technique_common>
      </optics>
      <extra>
        <technique profile="blender">
          <YF_dofdist>0</YF_dofdist>
          <shiftx>0</shiftx>
          <shifty>0</shifty>
        </technique>
      </extra>
    </camera>
    <camera id="Camera_001-camera" name="Camera.002">
      <optics>
        <technique_common>
          <perspective>
            <xfov sid="xfov">49.13434</xfov>
            <aspect_ratio>1.777778</aspect_ratio>
            <znear sid="znear">0.1</znear>
            <zfar sid="zfar">100</zfar>
          </perspective>
        </technique_common>
      </optics>
      <extra>
        <technique profile="blender">
          <YF_dofdist>0</YF_dofdist>
          <shiftx>0</shiftx>
          <shifty>0</shifty>
        </technique>
      </extra>
    </camera>
  </library_cameras>
  <library_lights>
    <light id="Lamp-light" name="Lamp">
      <technique_common>
        <point>
          <color sid="color">1 1 1</color>
          <constant_attenuation>1</constant_attenuation>
          <linear_attenuation>0</linear_attenuation>
          <quadratic_attenuation>0.00111109</quadratic_attenuation>
        </point>
      </technique_common>
      <extra>
        <technique profile="blender">
          <adapt_thresh>0.000999987</adapt_thresh>
          <area_shape>1</area_shape>
          <area_size>0.1</area_size>
          <area_sizey>0.1</area_sizey>
          <area_sizez>1</area_sizez>
          <atm_distance_factor>1</atm_distance_factor>
          <atm_extinction_factor>1</atm_extinction_factor>
          <atm_turbidity>2</atm_turbidity>
          <att1>0</att1>
          <att2>1</att2>
          <backscattered_light>1</backscattered_light>
          <bias>1</bias>
          <blue>1</blue>
          <buffers>1</buffers>
          <bufflag>0</bufflag>
          <bufsize>2880</bufsize>
          <buftype>2</buftype>
          <clipend>30.002</clipend>
          <clipsta>1.000799</clipsta>
          <compressthresh>0.04999995</compressthresh>
          <dist sid="blender_dist">29.99998</dist>
          <energy sid="blender_energy">1</energy>
          <falloff_type>2</falloff_type>
          <filtertype>0</filtertype>
          <flag>0</flag>
          <gamma sid="blender_gamma">1</gamma>
          <green>1</green>
          <halo_intensity sid="blnder_halo_intensity">1</halo_intensity>
          <horizon_brightness>1</horizon_brightness>
          <mode>8192</mode>
          <ray_samp>1</ray_samp>
          <ray_samp_method>1</ray_samp_method>
          <ray_samp_type>0</ray_samp_type>
          <ray_sampy>1</ray_sampy>
          <ray_sampz>1</ray_sampz>
          <red>1</red>
          <samp>3</samp>
          <shadhalostep>0</shadhalostep>
          <shadow_b sid="blender_shadow_b">0</shadow_b>
          <shadow_g sid="blender_shadow_g">0</shadow_g>
          <shadow_r sid="blender_shadow_r">0</shadow_r>
          <sky_colorspace>0</sky_colorspace>
          <sky_exposure>1</sky_exposure>
          <skyblendfac>1</skyblendfac>
          <skyblendtype>1</skyblendtype>
          <soft>3</soft>
          <spotblend>0.15</spotblend>
          <spotsize>75</spotsize>
          <spread>1</spread>
          <sun_brightness>1</sun_brightness>
          <sun_effect_type>0</sun_effect_type>
          <sun_intensity>1</sun_intensity>
          <sun_size>1</sun_size>
          <type>0</type>
        </technique>
      </extra>
    </light>
    <light id="Lamp_001-light" name="Lamp.001">
      <technique_common>
        <point>
          <color sid="color">1 1 1</color>
          <constant_attenuation>1</constant_attenuation>
          <linear_attenuation>0</linear_attenuation>
          <quadratic_attenuation>0.00111109</quadratic_attenuation>
        </point>
      </technique_common>
      <extra>
        <technique profile="blender">
          <adapt_thresh>9.99987e-4</adapt_thresh>
          <area_shape>1</area_shape>
          <area_size>0.1</area_size>
          <area_sizey>0.1</area_sizey>
          <area_sizez>1</area_sizez>
          <atm_distance_factor>1</atm_distance_factor>
          <atm_extinction_factor>1</atm_extinction_factor>
          <atm_turbidity>2</atm_turbidity>
          <att1>0</att1>
          <att2>1</att2>
          <backscattered_light>1</backscattered_light>
          <bias>1</bias>
          <blue>1</blue>
          <buffers>1</buffers>
          <bufflag>0</bufflag>
          <bufsize>2880</bufsize>
          <buftype>2</buftype>
          <clipend>30.002</clipend>
          <clipsta>1.000799</clipsta>
          <compressthresh>0.04999995</compressthresh>
          <dist sid="blender_dist">29.99998</dist>
          <energy sid="blender_energy">1</energy>
          <falloff_type>2</falloff_type>
          <filtertype>0</filtertype>
          <flag>0</flag>
          <gamma sid="blender_gamma">1</gamma>
          <green>1</green>
          <halo_intensity sid="blnder_halo_intensity">1</halo_intensity>
          <horizon_brightness>1</horizon_brightness>
          <mode>8192</mode>
          <ray_samp>1</ray_samp>
          <ray_samp_method>1</ray_samp_method>
          <ray_samp_type>0</ray_samp_type>
          <ray_sampy>1</ray_sampy>
          <ray_sampz>1</ray_sampz>
          <red>1</red>
          <samp>3</samp>
          <shadhalostep>0</shadhalostep>
          <shadow_b sid="blender_shadow_b">0</shadow_b>
          <shadow_g sid="blender_shadow_g">0</shadow_g>
          <shadow_r sid="blender_shadow_r">0</shadow_r>
          <sky_colorspace>0</sky_colorspace>
          <sky_exposure>1</sky_exposure>
          <skyblendfac>1</skyblendfac>
          <skyblendtype>1</skyblendtype>
          <soft>3</soft>
          <spotblend>0.15</spotblend>
          <spotsize>75</spotsize>
          <spread>1</spread>
          <sun_brightness>1</sun_brightness>
          <sun_effect_type>0</sun_effect_type>
          <sun_intensity>1</sun_intensity>
          <sun_size>1</sun_size>
          <type>0</type>
        </technique>
      </extra>
    </light>
  </library_lights>
  <library_images/>
  <library_effects>
    <effect id="Material_001-effect">
      <profile_COMMON>
        <technique sid="common">
          <phong>
            <emission>
              <color sid="emission">0 0 0 1</color>
            </emission>
            <ambient>
              <color sid="ambient">0 0 0 1</color>
            </ambient>
            <diffuse>
              <color sid="diffuse">0.64 0.64 0.64 1</color>
            </diffuse>
            <specular>
              <color sid="specular">0.25 0.25 0.25 1</color>
            </specular>
            <shininess>
              <float sid="shininess">50</float>
            </shininess>
            <index_of_refraction>
              <float sid="index_of_refraction">1</float>
            </index_of_refraction>
          </phong>
        </technique>
      </profile_COMMON>
    </effect>
  </library_effects>
  <library_materials>
    <material id="Material_001-material" name="Material_001">
      <instance_effect url="#Material_001-effect"/>
    </material>
  </library_materials>
  <library_geometries>
    <geometry id="Cube_001-mesh" name="Cube.001">
      <mesh>
        <source id="Cube_001-mesh-positions">
          <float_array id="Cube_001-mesh-positions-array" count="390">0.3961914 -1.167061 -0.04414421 0.3208397 -1.167061 -0.04414421 0.3846075 -1.158875 0.1316195 0.3324061 -1.158876 0.1315091 0.3585156 -1.167329 -0.06891375 0.3577498 -0.9919199 0.4895277 0.3983201 -1.166053 0.01472824 0.3187109 -1.166053 0.01472824 0.3583149 0.309877 -0.1207336 0.2780214 0.3052029 -0.08919537 0.4636821 0.309877 0.02538222 0.4386085 0.3052029 0.09746819 0.2529478 0.309877 0.02538222 0.2780214 0.3052029 0.09746819 0.358315 0.309877 0.1354704 0.4386085 0.3052029 -0.08919537 0.3583149 0.4721338 -0.1304184 0.2780214 0.4674597 -0.09676635 0.4636821 0.4721338 0.02549052 0.4386085 0.4674597 0.04758358 0.2529478 0.4721338 0.02549052 0.2780214 0.4674597 0.04758358 0.358315 0.4721338 0.08813279 0.4386085 0.4674597 -0.09676635 0.358315 0.7089845 0.1345826 0.2780214 0.709044 0.09577357 0.2529478 0.708747 0.04321396 0.4636821 0.708747 0.04321396 0.4386085 0.709044 0.09577357 0.3583149 0.7085095 -0.1053937 0.2780214 0.7086821 -0.07347643 0.4386085 0.7086821 -0.07347643 0.358578 -1.735743 -0.02510428 0.3287438 -1.171182 0.2475205 0.3169815 -1.60528 -9.12288e-4 0.3208729 -1.590979 0.2313126 0.4042177 -1.529615 0.07116854 0.3963506 -1.590978 0.2314746 0.3581791 -1.0153 0.2295812 0.4006734 -0.9676478 -0.03857624 0.3583149 -0.02048939 -0.1041706 0.3013977 -0.02411663 -0.08181428 0.433006 -0.02048939 0.01858472 0.4152323 -0.02411663 0.09502869 0.3585896 -0.9703202 -0.05789089 0.3169399 -0.9676478 -0.03857624 0.4085038 -0.9885892 0.01637274 0.4012443 -0.9179986 0.1187811 0.3110942 -0.9885892 0.01637274 0.316316 -0.9179975 0.1188991 0.2836239 -0.02048939 0.01858472 0.3013976 -0.02411663 0.09502869 0.358315 -0.02048939 0.1219671 0.3583029 -0.89848 0.1338334 0.4152323 -0.02411663 -0.08181428 0.2899675 0.08544808 0.07793384 0.358315 0.08980381 0.110282 0.4480054 0.08980381 0.02193301 0.4266624 0.08544808 -0.07559752 0.3583149 0.08980381 -0.1024435 0.2899675 0.08544808 -0.07559752 0.4266624 0.08544808 0.07793384 0.2686244 0.08980381 0.02193301 0.359579 -1.0704 0.1429957 0.4150065 -0.284212 0.1373361 0.4122202 -0.2811008 0.02367734 0.3051412 -0.2843631 -0.06588566 0.3582324 -0.2811008 -0.08525937 0.4156703 -0.4208235 -0.05040556 0.3004273 -0.4208235 -0.05040556 0.3039044 -0.2811008 0.02367734 0.3011904 -0.2842197 0.136999 0.4111943 -0.4437474 0.1113247 0.3562015 -0.2809887 0.1578913 0.3051009 -0.4437476 0.1110119 0.4110123 -0.2843631 -0.06588566 0.3607091 -0.4439532 0.1289967 0.3582299 -0.4210874 -0.07595783 0.2986963 -0.4210874 0.005680382 0.417361 -0.4210874 0.005680382 0.3584938 -0.8353264 -0.05028587 0.3584335 -0.7670454 -0.06746059 0.4113681 -0.8323829 -0.02716886 0.4171058 -0.7635741 -0.04021751 0.3058383 -0.8323827 -0.02716886 0.2989177 -0.7635732 -0.04021745 0.4191845 -0.7670431 0.01214385 0.4210557 -0.8353278 0.03859162 0.4103652 -0.8165183 0.1147384 0.4153783 -0.7449335 0.112384 0.2967895 -0.7670419 0.01214385 0.2986007 -0.8353278 0.03859162 0.3008309 -0.7449367 0.1119568 0.3068736 -0.8165178 0.1146991 0.3581604 -0.6429004 0.1324354 0.3593409 -0.8191017 0.1326189 0.3187044 -1.458646 0.003976762 0.358509 -1.459922 -0.06627845 0.3208331 -1.459654 -0.04547321 0.3961848 -1.459654 -0.04547321 0.3575148 -1.615803 0.6886988 0.3989232 -1.349897 0.1539513 0.3983135 -1.458646 0.003976762 0.3180771 -1.349898 0.1538586 0.4002687 -1.60528 -9.12288e-4 0.3884947 -1.171182 0.2477133 0.3130325 -1.529615 0.07116854 0.3581038 -0.9704496 0.3285089 0.3572228 -1.689391 0.3125378 0.3374242 -1.146018 0.3792166 0.3949875 -1.576545 0.3729737 0.3195098 -1.576568 0.3728134 0.377088 -1.145991 0.3794075 0.3439381 -1.082641 0.1404278 0.3715168 -1.08267 0.1404423 0.3576259 -1.030436 0.1418569 0.373914 -1.685804 -0.03603625 0.3441776 -1.686023 -0.03619605 0.3585064 -1.586293 -0.0347948 0.3503054 -0.9887678 0.3147814 0.3636581 -0.9886537 0.3148618 0.366791 -1.642383 0.3334188 0.3476554 -1.642307 0.3332265 0.3638859 -1.03084 0.2218341 0.3505332 -1.030894 0.2218277 0.3449757 -1.59531 0.6532456 0.3662393 -1.595407 0.653569 0.3643277 -1.008849 0.4662424 0.3466961 -1.008938 0.4661199 0.3585437 -1.681748 -0.04051375</float_array>
          <technique_common>
            <accessor source="#Cube_001-mesh-positions-array" count="130" stride="3">
              <param name="X" type="float"/>
              <param name="Y" type="float"/>
              <param name="Z" type="float"/>
            </accessor>
          </technique_common>
        </source>
        <source id="Cube_001-mesh-normals">
          <float_array id="Cube_001-mesh-normals-array" count="390">-0.7257028 0.0479753 0.6863337 -0.9919625 -0.1046195 0.07117056 -0.7612111 -0.05929887 0.6457873 0.9940112 0.06607413 0.08704078 0.9983565 -0.05493354 -0.01632744 0.7811244 -0.02884006 0.6237092 0.7257028 0.0479753 0.6863337 0.9919625 -0.1046195 0.07117056 0.9967946 -0.0115363 0.07916736 -0.8647307 0.0035097 -0.5022237 -0.001648008 0.0388503 -0.9992437 -3.05186e-5 0.02917569 -0.9995743 0.6138061 0.0145272 0.7893232 0.7708547 0.6266514 0.1144165 0.557774 0.589087 0.5846921 -0.9967946 -0.0115363 0.07916736 -0.7595369 0.01559537 -0.6502773 -0.7616974 -0.05597209 -0.6455109 0 -0.06592142 -0.9978249 0.7595369 0.01559537 -0.6502773 0.7616974 -0.05597209 -0.6455109 -0.6138061 0.0145272 0.7893232 -0.9526442 -0.01135295 0.3038756 0.8434597 0.2010911 0.4981347 0.9955534 0.09180051 0.02111899 0 -0.03582978 -0.9993579 -0.77419 -0.06973719 -0.6290999 0.77419 -0.06973719 -0.6290999 -0.005585014 0.063694 0.9979539 -0.002227842 0.02899271 0.9995772 -0.7901192 -0.02734541 0.6123431 0 -0.008423268 0.9999646 0.7612111 -0.05929887 0.6457873 -0.9985882 -0.05252349 -0.007934987 -0.7999607 -0.005005061 -0.6000316 0.8636561 9.15569e-5 -0.5040817 0.9995016 -0.01437449 0.02810811 -0.9946191 0.06338822 0.08194392 -0.9995884 -0.007202446 0.02777224 0.7887648 -0.003692746 -0.6146842 0 0.08670467 0.9962341 0 0.02517819 -0.999683 0.9526442 -0.01135295 0.3038756 0 0.04376435 0.999042 -0.8300882 -0.06680625 -0.5536159 -0.999947 -0.009704947 -0.003479123 -0.9990497 0.02450698 -0.03604328 0.5997068 0.6374593 -0.4837329 -0.557774 0.589087 0.5846921 0 0.6684908 -0.7437205 -0.7708547 0.6266514 0.1144165 -0.5997263 0.6374476 -0.4837241 0 0.5481544 0.8363772 -0.9801588 -0.194988 0.03561604 -0.7395133 -0.2265143 -0.633886 -0.9503969 -0.3090674 0.03497493 0.8298787 -0.06634879 -0.5539849 0.9999548 -0.008697867 -0.003845393 0.931812 -0.1396253 -0.3350092 0.9989978 0.02612394 -0.03634768 0.9989236 0.02462893 0.03930866 0.977959 -0.203655 0.04605352 0.9325204 0.3227122 -0.162058 0.9602165 0.269604 -0.07278758 -0.808855 -0.03677582 0.586857 -0.002899289 0.007965505 0.9999641 0.01348918 -0.07803601 0.9968593 0.7875811 0.03405952 0.6152691 0.9999539 -0.00451678 -0.008484244 0.9954583 -0.09057939 0.02929788 -0.7854454 0.03070241 0.618169 -0.01944047 -0.009430289 0.9997666 -0.002807676 0.1268358 0.9919198 -0.7625889 -0.05948233 -0.6441431 8.24016e-4 -0.06686735 -0.9977616 -0.8090741 -0.03476178 -0.5866779 -0.9955409 -0.08966577 0.02929854 0.8156803 -0.03827077 0.5772356 0.8123068 -0.0104987 0.583136 -0.99996 -0.003570735 -0.008209645 -0.8030255 -0.01681613 0.5957075 0.7984147 -0.01895242 0.6018096 0.7627284 -0.06012219 -0.6439183 3.0519e-5 -0.02645993 -0.9996499 -0.8219156 -0.09399944 -0.5617995 -0.9996909 0.01901352 0.01602262 -0.837643 -0.02179104 -0.5457833 -0.9994598 -0.03231936 -0.005981624 0.001159727 -0.05905473 -0.9982541 0.9997094 0.01873862 0.01516789 0.8219343 -0.09091567 -0.5622797 0.8384566 -0.02197384 -0.5445253 0.8096407 -0.03561574 -0.5858443 0.9998421 -0.01489335 -0.009705126 0.001892149 -0.09344923 -0.9956223 0.8196333 -0.0836541 -0.5667482 -0.001709043 -0.1264719 -0.9919688 -0.9314475 -0.1446002 -0.3339111 0.9994458 -0.02887123 0.01657193 -0.9988828 0.02435404 0.04049855 -0.9963265 0.08462941 0.01309269 0 -0.1223818 -0.9924831 -0.9371825 0.3338186 -0.1012626 -0.9972497 0.05386662 0.05090624 0.74182 -0.2282804 -0.6305485 0.9473485 -0.3166679 0.04745745 -0.903301 0.3755056 -0.207468 -0.9983592 -0.05410969 0.01873844 0.7826896 -0.02069187 0.6220682 0.005432367 0.01043754 0.9999309 -0.8276476 -0.1008046 -0.5521212 -0.783981 -0.03058034 0.6200311 -0.8119879 -0.01574778 0.5834618 0.004242181 -0.1329421 -0.9911148 -0.9815829 -0.1849147 0.04797583 0.9955504 0.0607627 0.0720241 0.9829745 -0.09323441 0.1583306 0.9801002 -0.1883658 0.06262576 -0.9613952 0.2364652 0.1407254 -0.9701913 -0.1233568 0.2085956 -0.8457809 0.209759 0.490567 0.1184429 0.7278701 0.6754084 -0.003357052 -0.07892233 -0.9968751 -0.003143429 -0.9864435 0.1640715 0.06433445 0.89464 -0.4421317 0.05353087 0.9967306 -0.06051981 0.0549035 0.7322098 0.6788628 0.03100788 -0.506747 0.8615371 0.9822016 0.1601651 0.09811943 -0.004547357 -0.9311719 -0.364552</float_array>
          <technique_common>
            <accessor source="#Cube_001-mesh-normals-array" count="130" stride="3">
              <param name="X" type="float"/>
              <param name="Y" type="float"/>
              <param name="Z" type="float"/>
            </accessor>
          </technique_common>
        </source>
        <source id="Cube_001-mesh-map-0">
          <float_array id="Cube_001-mesh-map-0-array" count="1536">0.7227599 0.1634456 0.6953377 0.2368583 0.717288 0.2393696 0.7254962 0.7395946 0.67633 0.6615146 0.7194374 0.6322501 0.7200521 0.168511 0.6923894 0.2420557 0.695149 0.1658317 0.6506993 0.7320927 0.6376109 0.6486806 0.6317449 0.7307422 0.7074036 0.1138411 0.6936259 0.05682235 0.7061358 0.05053973 0.6979154 0.1608148 0.6591585 0.1081116 0.6581307 0.1608253 0.6254662 0.1635374 0.656385 0.1129513 0.6552787 0.1657822 0.6979154 0.1608148 0.710061 0.1089289 0.6994369 0.1080957 0.6581307 0.1608253 0.6953377 0.2368583 0.6979154 0.1608148 0.7337218 0.7044003 0.7730165 0.7555708 0.7254962 0.7395946 0.6581307 0.1608253 0.6323996 0.2369345 0.6590307 0.2379478 0.6552787 0.1657822 0.6923894 0.2420557 0.6560385 0.2430552 0.7412169 0.6742549 0.7416452 0.6206752 0.7232404 0.6280165 0.7200521 0.168511 0.7421824 0.2442663 0.7143895 0.244639 0.6506993 0.7320927 0.6797221 0.6574718 0.6567469 0.648005 0.6552787 0.1657822 0.6293865 0.241994 0.6254662 0.1635374 0.6479068 0.7360755 0.67633 0.6615146 0.6727778 0.737432 0.7284216 0.736815 0.6797221 0.6574718 0.6756093 0.7337299 0.6479068 0.7360755 0.6341181 0.6530769 0.6533108 0.6522843 0.7227599 0.1634456 0.7449347 0.2389281 0.7526431 0.1613696 0.695149 0.1658317 0.7074036 0.1138411 0.7200521 0.168511 0.6283759 0.1586284 0.6591585 0.1081116 0.6318765 0.1023023 0.695149 0.1658317 0.656385 0.1129513 0.6967557 0.1129911 0.7200521 0.168511 0.7378286 0.1088332 0.750023 0.1664726 0.7227599 0.1634456 0.7404056 0.1038921 0.710061 0.1089289 0.6360414 0.8516771 0.6779382 0.8866064 0.6557996 0.854209 0.6967557 0.1129911 0.6721463 0.05488783 0.6936259 0.05682235 0.7404056 0.1038921 0.7087109 0.04577577 0.710061 0.1089289 0.656385 0.1129513 0.6514824 0.03245133 0.6721463 0.05488783 0.6591585 0.1081116 0.6541587 0.02780312 0.6318765 0.1023023 0.710061 0.1089289 0.6962382 0.05206084 0.6994369 0.1080957 0.6994369 0.1080957 0.6748054 0.05016005 0.6591585 0.1081116 0.7378286 0.1088332 0.7061358 0.05053973 0.7268927 0.03168696 0.7356112 0.921598 0.6274971 0.9415658 0.7717775 0.9518446 0.6348128 0.855943 0.6773265 0.8904492 0.6441949 0.9158582 0.6546486 0.8582107 0.7215667 0.8229834 0.6773265 0.8904492 0.7215667 0.8229834 0.7730165 0.7555708 0.7358881 0.9249603 0.7730165 0.7555708 0.7782784 0.6950007 0.8195884 0.690073 0.7244555 0.4400794 0.7447397 0.5200332 0.747685 0.441537 0.7195189 0.2864693 0.6869056 0.3818807 0.6901165 0.2833213 0.7226774 0.2809797 0.7540274 0.3781058 0.7463545 0.2796108 0.6549962 0.2784671 0.6347943 0.3758671 0.6564072 0.3770427 0.7195189 0.2864693 0.7421824 0.2442663 0.7435196 0.2852062 0.6932387 0.2780532 0.717288 0.2393696 0.6953377 0.2368583 0.7206873 0.4448295 0.740884 0.5245533 0.716399 0.5630822 0.6549962 0.2784671 0.6904358 0.3769627 0.6932387 0.2780532 0.7226774 0.2809797 0.7449347 0.2389281 0.717288 0.2393696 0.6901165 0.2833213 0.6560385 0.2430552 0.6923894 0.2420557 0.7226774 0.2809797 0.6904358 0.3769627 0.7320226 0.3789835 0.7435196 0.2852062 0.7284722 0.3840308 0.7195189 0.2864693 0.6932387 0.2780532 0.6590307 0.2379478 0.6549962 0.2784671 0.6519021 0.2835723 0.6293865 0.241994 0.6560385 0.2430552 0.6549962 0.2784671 0.6323996 0.2369345 0.632217 0.277288 0.6901165 0.2833213 0.7143895 0.244639 0.7195189 0.2864693 0.6609336 0.5631492 0.6829095 0.4307568 0.6607961 0.4301089 0.6811175 0.5658199 0.7244555 0.4400794 0.6829095 0.4307568 0.6359332 0.4301199 0.6609336 0.5631492 0.6607961 0.4301089 0.6792297 0.4354422 0.6570729 0.567842 0.6572025 0.4347404 0.6519021 0.2835723 0.6315566 0.3806372 0.6291551 0.2823593 0.6519021 0.2835723 0.6869056 0.3818807 0.6529857 0.3818525 0.7206873 0.4448295 0.6772806 0.5704641 0.6792297 0.4354422 0.6533108 0.6522843 0.6355913 0.5978201 0.6592885 0.5958764 0.6360414 0.8516771 0.6231124 0.9032238 0.6446344 0.9114734 0.6533108 0.6522843 0.6864808 0.5979605 0.67633 0.6615146 0.7229333 0.8200811 0.7750297 0.7538906 0.7284216 0.736815 0.6348128 0.855943 0.622411 0.9078026 0.6173864 0.8550001 0.8232302 0.691602 0.7750297 0.7538906 0.8302578 0.7580937 0.6936259 0.05682235 0.6514824 0.03245133 0.7268927 0.03168696 0.627593 0.9460999 0.7358881 0.9249603 0.7727255 0.9555546 0.7826231 0.6945011 0.7750297 0.7538906 0.8232302 0.691602 0.7232404 0.6280165 0.6902889 0.5934498 0.6797221 0.6574718 0.7244555 0.4400794 0.6904358 0.3769627 0.6829095 0.4307568 0.7381489 0.6248215 0.7172279 0.5910605 0.7386474 0.5928933 0.6570729 0.567842 0.6325618 0.4346803 0.6572025 0.4347404 0.6829095 0.4307568 0.6564072 0.3770427 0.6607961 0.4301089 0.6567469 0.648005 0.6902889 0.5934498 0.663035 0.591355 0.6529857 0.3818525 0.6792297 0.4354422 0.6572025 0.4347404 0.7194374 0.6322501 0.6864808 0.5979605 0.7172279 0.5910605 0.6529857 0.3818525 0.6325618 0.4346803 0.6315566 0.3806372 0.7284722 0.3840308 0.7418704 0.4461626 0.7206873 0.4448295 0.7416452 0.6206752 0.7211104 0.5866322 0.7232404 0.6280165 0.6869056 0.3818807 0.7206873 0.4448295 0.6792297 0.4354422 0.7320226 0.3789835 0.747685 0.441537 0.7540274 0.3781058 0.6359332 0.4301199 0.6564072 0.3770427 0.6347943 0.3758671 0.6772806 0.5704641 0.6592885 0.5958764 0.6570729 0.567842 0.716399 0.5630822 0.7386474 0.5928933 0.7172279 0.5910605 0.6355913 0.5978201 0.6570729 0.567842 0.6592885 0.5958764 0.7200632 0.5585372 0.7431752 0.5886316 0.7447397 0.5200332 0.7211104 0.5866322 0.6811175 0.5658199 0.6902889 0.5934498 0.6772806 0.5704641 0.7172279 0.5910605 0.6864808 0.5979605 0.663035 0.591355 0.6355545 0.5653198 0.6393696 0.5931351 0.663035 0.591355 0.6811175 0.5658199 0.6609336 0.5631492 0.6567469 0.648005 0.6393696 0.5931351 0.6376109 0.6486806 0.7750297 0.7538906 0.7920888 0.9264149 0.8302578 0.7580937 0.6506993 0.7320927 0.6557996 0.854209 0.6756093 0.7337299 0.6541587 0.02780312 0.6962382 0.05206084 0.7293949 0.02693885 0.6317449 0.7307422 0.6360414 0.8516771 0.6506993 0.7320927 0.6727778 0.737432 0.7215667 0.8229834 0.6546486 0.8582107 0.7337218 0.7044003 0.7194374 0.6322501 0.7386315 0.6785275 0.6479068 0.7360755 0.6546486 0.8582107 0.6348128 0.855943 0.6756093 0.7337299 0.7229333 0.8200811 0.7284216 0.736815 0.7730165 0.7555708 0.8195884 0.690073 0.8291581 0.7579404 0.6289672 0.7349396 0.6348128 0.855943 0.6173864 0.8550001 0.7229333 0.8200811 0.6557996 0.854209 0.6779382 0.8866064 0.8291581 0.7579404 0.9022204 0.9582088 0.7931025 0.9295261 0.6446344 0.9114734 0.7356112 0.921598 0.6779382 0.8866064 0.7358881 0.9249603 0.6441949 0.9158582 0.6773265 0.8904492 0.6779382 0.8866064 0.7356112 0.921598 0.7229333 0.8200811 0.6773265 0.8904492 0.7215667 0.8229834 0.7358881 0.9249603 0.7730165 0.7555708 0.7931025 0.9295261 0.7358881 0.9249603 0.7727255 0.9555546 0.7931025 0.9295261 0.9022204 0.9582088 0.7717775 0.9518446 0.7920888 0.9264149 0.7356112 0.921598 0.8767236 0.7155249 0.8302578 0.7580937 0.8978915 0.9543662 0.7364513 0.701061 0.7435538 0.6920951 0.7412169 0.6742549 0.627593 0.9460999 0.6209279 0.9452446 0.622411 0.9078026 0.6274971 0.9415658 0.7601048 0.9696153 0.7717775 0.9518446 0.8195884 0.690073 0.7836508 0.6893499 0.8268746 0.6842173 0.7782784 0.6950007 0.7391526 0.6967045 0.7836508 0.6893499 0.9022204 0.9582088 0.8864551 0.7078165 0.91496 0.9691449 0.8756622 0.7124904 0.8268746 0.6842173 0.8864551 0.7078165 0.8978915 0.9543662 0.7601048 0.9696153 0.9107422 0.9656147 0.7364513 0.701061 0.7750297 0.7538906 0.7826231 0.6945011 0.8302578 0.7580937 0.8767236 0.7155249 0.8232302 0.691602 0.8291581 0.7579404 0.8195884 0.690073 0.8756622 0.7124904 0.8978915 0.9543662 0.8302578 0.7580937 0.7920888 0.9264149 0.9022204 0.9582088 0.8291581 0.7579404 0.8756622 0.7124904 0.622411 0.9078026 0.6441949 0.9158582 0.627593 0.9460999 0.6446344 0.9114734 0.6231124 0.9032238 0.6274971 0.9415658 0.6231124 0.9032238 0.6212433 0.9405127 0.6274971 0.9415658 0.8879173 0.7107811 0.8978915 0.9543662 0.9107422 0.9656147 0.7609206 0.9735428 0.627593 0.9460999 0.7727255 0.9555546 0.8306356 0.6857462 0.8767236 0.7155249 0.8879173 0.7107811 0.7882293 0.6887596 0.8232302 0.691602 0.8306356 0.6857462 0.7386315 0.6785275 0.7391526 0.6967045 0.7337218 0.7044003 0.7609206 0.9735428 0.9022204 0.9582088 0.91496 0.9691449 0.7435538 0.6920951 0.7826231 0.6945011 0.7882293 0.6887596 0.6209279 0.9452446 0.627593 0.9460999 0.6289337 0.9670472 0.6274971 0.9415658 0.6212433 0.9405127 0.6288607 0.9622862 0.7227599 0.1634456 0.6979154 0.1608148 0.6953377 0.2368583 0.7254962 0.7395946 0.6727778 0.737432 0.67633 0.6615146 0.7200521 0.168511 0.7143895 0.244639 0.6923894 0.2420557 0.6506993 0.7320927 0.6567469 0.648005 0.6376109 0.6486806 0.7074036 0.1138411 0.6967557 0.1129911 0.6936259 0.05682235 0.6979154 0.1608148 0.6994369 0.1080957 0.6591585 0.1081116 0.6254662 0.1635374 0.6290493 0.1070922 0.656385 0.1129513 0.6979154 0.1608148 0.7227599 0.1634456 0.710061 0.1089289 0.6581307 0.1608253 0.6590307 0.2379478 0.6953377 0.2368583 0.7337218 0.7044003 0.7782784 0.6950007 0.7730165 0.7555708 0.6581307 0.1608253 0.6283759 0.1586284 0.6323996 0.2369345 0.6552787 0.1657822 0.695149 0.1658317 0.6923894 0.2420557 0.7232404 0.6280165 0.7284216 0.736815 0.7364513 0.701061 0.7364513 0.701061 0.7412169 0.6742549 0.7232404 0.6280165 0.7200521 0.168511 0.750023 0.1664726 0.7421824 0.2442663 0.6506993 0.7320927 0.6756093 0.7337299 0.6797221 0.6574718 0.6552787 0.1657822 0.6560385 0.2430552 0.6293865 0.241994 0.6479068 0.7360755 0.6533108 0.6522843 0.67633 0.6615146 0.7284216 0.736815 0.7232404 0.6280165 0.6797221 0.6574718 0.6479068 0.7360755 0.6289672 0.7349396 0.6341181 0.6530769 0.7227599 0.1634456 0.717288 0.2393696 0.7449347 0.2389281 0.695149 0.1658317 0.6967557 0.1129911 0.7074036 0.1138411 0.6283759 0.1586284 0.6581307 0.1608253 0.6591585 0.1081116 0.695149 0.1658317 0.6552787 0.1657822 0.656385 0.1129513 0.7200521 0.168511 0.7074036 0.1138411 0.7378286 0.1088332 0.7227599 0.1634456 0.7526431 0.1613696 0.7404056 0.1038921 0.6360414 0.8516771 0.6446344 0.9114734 0.6779382 0.8866064 0.6967557 0.1129911 0.656385 0.1129513 0.6721463 0.05488783 0.7404056 0.1038921 0.7293949 0.02693885 0.7087109 0.04577577 0.656385 0.1129513 0.6290493 0.1070922 0.6514824 0.03245133 0.6591585 0.1081116 0.6748054 0.05016005 0.6541587 0.02780312 0.710061 0.1089289 0.7087109 0.04577577 0.6962382 0.05206084 0.6994369 0.1080957 0.6962382 0.05206084 0.6748054 0.05016005 0.7378286 0.1088332 0.7074036 0.1138411 0.7061358 0.05053973 0.7356112 0.921598 0.6446344 0.9114734 0.6274971 0.9415658 0.6348128 0.855943 0.6546486 0.8582107 0.6773265 0.8904492 0.7215667 0.8229834 0.7254962 0.7395946 0.7730165 0.7555708 0.7244555 0.4400794 0.7200632 0.5585372 0.7447397 0.5200332 0.7195189 0.2864693 0.7284722 0.3840308 0.6869056 0.3818807 0.7226774 0.2809797 0.7320226 0.3789835 0.7540274 0.3781058 0.6549962 0.2784671 0.632217 0.277288 0.6347943 0.3758671 0.7195189 0.2864693 0.7143895 0.244639 0.7421824 0.2442663 0.6932387 0.2780532 0.7226774 0.2809797 0.717288 0.2393696 0.7206873 0.4448295 0.7418704 0.4461626 0.740884 0.5245533 0.6549962 0.2784671 0.6564072 0.3770427 0.6904358 0.3769627 0.7226774 0.2809797 0.7463545 0.2796108 0.7449347 0.2389281 0.6901165 0.2833213 0.6519021 0.2835723 0.6560385 0.2430552 0.7226774 0.2809797 0.6932387 0.2780532 0.6904358 0.3769627 0.7435196 0.2852062 0.7516908 0.383457 0.7284722 0.3840308 0.6932387 0.2780532 0.6953377 0.2368583 0.6590307 0.2379478 0.6519021 0.2835723 0.6291551 0.2823593 0.6293865 0.241994 0.6549962 0.2784671 0.6590307 0.2379478 0.6323996 0.2369345 0.6901165 0.2833213 0.6923894 0.2420557 0.7143895 0.244639 0.6609336 0.5631492 0.6811175 0.5658199 0.6829095 0.4307568 0.6811175 0.5658199 0.7200632 0.5585372 0.7244555 0.4400794 0.6359332 0.4301199 0.6355545 0.5653198 0.6609336 0.5631492 0.6792297 0.4354422 0.6772806 0.5704641 0.6570729 0.567842 0.6519021 0.2835723 0.6529857 0.3818525 0.6315566 0.3806372 0.6519021 0.2835723 0.6901165 0.2833213 0.6869056 0.3818807 0.7206873 0.4448295 0.716399 0.5630822 0.6772806 0.5704641 0.6533108 0.6522843 0.6341181 0.6530769 0.6355913 0.5978201 0.6360414 0.8516771 0.6186666 0.8505312 0.6231124 0.9032238 0.6533108 0.6522843 0.6592885 0.5958764 0.6864808 0.5979605 0.7229333 0.8200811 0.7356112 0.921598 0.7750297 0.7538906 0.6348128 0.855943 0.6441949 0.9158582 0.622411 0.9078026 0.7268927 0.03168696 0.7061358 0.05053973 0.6936259 0.05682235 0.6936259 0.05682235 0.6721463 0.05488783 0.6514824 0.03245133 0.627593 0.9460999 0.6441949 0.9158582 0.7358881 0.9249603 0.7232404 0.6280165 0.7211104 0.5866322 0.6902889 0.5934498 0.7244555 0.4400794 0.7320226 0.3789835 0.6904358 0.3769627 0.7381489 0.6248215 0.7194374 0.6322501 0.7172279 0.5910605 0.6570729 0.567842 0.6318264 0.5696302 0.6325618 0.4346803 0.6829095 0.4307568 0.6904358 0.3769627 0.6564072 0.3770427 0.6567469 0.648005 0.6797221 0.6574718 0.6902889 0.5934498 0.6529857 0.3818525 0.6869056 0.3818807 0.6792297 0.4354422 0.7194374 0.6322501 0.67633 0.6615146 0.6864808 0.5979605 0.6529857 0.3818525 0.6572025 0.4347404 0.6325618 0.4346803 0.7284722 0.3840308 0.7516908 0.383457 0.7418704 0.4461626 0.7416452 0.6206752 0.7431752 0.5886316 0.7211104 0.5866322 0.6869056 0.3818807 0.7284722 0.3840308 0.7206873 0.4448295 0.7320226 0.3789835 0.7244555 0.4400794 0.747685 0.441537 0.6359332 0.4301199 0.6607961 0.4301089 0.6564072 0.3770427 0.6772806 0.5704641 0.6864808 0.5979605 0.6592885 0.5958764 0.716399 0.5630822 0.740884 0.5245533 0.7386474 0.5928933 0.6355913 0.5978201 0.6318264 0.5696302 0.6570729 0.567842 0.7200632 0.5585372 0.7211104 0.5866322 0.7431752 0.5886316 0.7211104 0.5866322 0.7200632 0.5585372 0.6811175 0.5658199 0.6772806 0.5704641 0.716399 0.5630822 0.7172279 0.5910605 0.663035 0.591355 0.6609336 0.5631492 0.6355545 0.5653198 0.663035 0.591355 0.6902889 0.5934498 0.6811175 0.5658199 0.6567469 0.648005 0.663035 0.591355 0.6393696 0.5931351 0.7750297 0.7538906 0.7356112 0.921598 0.7920888 0.9264149 0.6506993 0.7320927 0.6360414 0.8516771 0.6557996 0.854209 0.7087109 0.04577577 0.7293949 0.02693885 0.6962382 0.05206084 0.6541587 0.02780312 0.6748054 0.05016005 0.6962382 0.05206084 0.6317449 0.7307422 0.6186666 0.8505312 0.6360414 0.8516771 0.6727778 0.737432 0.7254962 0.7395946 0.7215667 0.8229834 0.7381489 0.6248215 0.7386315 0.6785275 0.7194374 0.6322501 0.7337218 0.7044003 0.7254962 0.7395946 0.7194374 0.6322501 0.6479068 0.7360755 0.6727778 0.737432 0.6546486 0.8582107 0.6756093 0.7337299 0.6557996 0.854209 0.7229333 0.8200811 0.6289672 0.7349396 0.6479068 0.7360755 0.6348128 0.855943 0.7730165 0.7555708 0.8291581 0.7579404 0.7931025 0.9295261 0.7727255 0.9555546 0.7358881 0.9249603 0.7931025 0.9295261 0.7717775 0.9518446 0.8978915 0.9543662 0.7920888 0.9264149 0.6274971 0.9415658 0.6288607 0.9622862 0.7601048 0.9696153 0.8195884 0.690073 0.7782784 0.6950007 0.7836508 0.6893499 0.7782784 0.6950007 0.7337218 0.7044003 0.7391526 0.6967045 0.9022204 0.9582088 0.8756622 0.7124904 0.8864551 0.7078165 0.8756622 0.7124904 0.8195884 0.690073 0.8268746 0.6842173 0.8978915 0.9543662 0.7717775 0.9518446 0.7601048 0.9696153 0.7364513 0.701061 0.7284216 0.736815 0.7750297 0.7538906 0.8879173 0.7107811 0.8767236 0.7155249 0.8978915 0.9543662 0.7609206 0.9735428 0.6289337 0.9670472 0.627593 0.9460999 0.8306356 0.6857462 0.8232302 0.691602 0.8767236 0.7155249 0.7882293 0.6887596 0.7826231 0.6945011 0.8232302 0.691602 0.7609206 0.9735428 0.7727255 0.9555546 0.9022204 0.9582088 0.7435538 0.6920951 0.7364513 0.701061 0.7826231 0.6945011</float_array>
          <technique_common>
            <accessor source="#Cube_001-mesh-map-0-array" count="768" stride="2">
              <param name="S" type="float"/>
              <param name="T" type="float"/>
            </accessor>
          </technique_common>
        </source>
        <vertices id="Cube_001-mesh-vertices">
          <input semantic="POSITION" source="#Cube_001-mesh-positions"/>
        </vertices>
        <polylist material="Material_001-material" count="256">
          <input semantic="VERTEX" source="#Cube_001-mesh-vertices" offset="0"/>
          <input semantic="NORMAL" source="#Cube_001-mesh-normals" offset="1"/>
          <input semantic="TEXCOORD" source="#Cube_001-mesh-map-0" offset="2" set="0"/>
          <vcount>3 3 3 3 3 3 3 3 3 3 3 3 3 3 3 3 3 3 3 3 3 3 3 3 3 3 3 3 3 3 3 3 3 3 3 3 3 3 3 3 3 3 3 3 3 3 3 3 3 3 3 3 3 3 3 3 3 3 3 3 3 3 3 3 3 3 3 3 3 3 3 3 3 3 3 3 3 3 3 3 3 3 3 3 3 3 3 3 3 3 3 3 3 3 3 3 3 3 3 3 3 3 3 3 3 3 3 3 3 3 3 3 3 3 3 3 3 3 3 3 3 3 3 3 3 3 3 3 3 3 3 3 3 3 3 3 3 3 3 3 3 3 3 3 3 3 3 3 3 3 3 3 3 3 3 3 3 3 3 3 3 3 3 3 3 3 3 3 3 3 3 3 3 3 3 3 3 3 3 3 3 3 3 3 3 3 3 3 3 3 3 3 3 3 3 3 3 3 3 3 3 3 3 3 3 3 3 3 3 3 3 3 3 3 3 3 3 3 3 3 3 3 3 3 3 3 3 3 3 3 3 3 3 3 3 3 3 3 3 3 3 3 3 3 3 3 3 3 3 3 3 3 3 3 3 3 </vcount>
          <p>13 0 0 62 1 1 55 2 2 2 3 3 46 4 4 47 5 5 11 6 6 57 7 7 10 8 8 1 9 9 44 10 10 4 11 11 19 12 12 27 13 13 28 14 14 12 15 15 17 16 16 9 17 17 8 18 18 23 19 19 15 20 20 12 15 21 21 21 22 20 22 23 9 17 24 62 1 25 12 15 26 114 23 27 105 24 28 2 3 29 9 17 30 59 25 31 60 26 32 15 20 33 57 7 34 58 27 35 115 28 36 53 29 37 49 30 38 11 6 39 56 31 40 61 32 41 1 9 42 48 33 43 45 34 44 15 20 45 59 25 46 8 18 47 0 35 48 46 4 49 6 36 50 3 37 51 48 33 52 7 38 53 0 35 54 44 10 55 39 39 56 13 0 57 56 31 58 14 40 59 10 8 60 19 12 61 11 6 62 8 18 63 17 16 64 16 41 65 10 8 66 23 19 67 18 42 68 11 6 69 22 43 70 14 40 71 13 0 72 22 43 73 21 21 74 98 44 75 106 45 76 96 46 77 18 42 78 31 47 79 27 13 80 22 43 81 25 48 82 21 21 83 23 19 84 29 49 85 31 47 86 17 16 87 29 49 88 16 41 89 21 21 90 26 50 91 20 22 92 20 22 93 30 51 94 17 16 95 22 43 96 28 14 97 24 52 98 35 53 99 117 54 100 122 55 101 99 56 102 36 57 103 104 58 104 102 59 105 101 60 106 36 57 107 101 60 108 105 24 109 37 61 110 105 24 111 123 62 112 120 63 113 74 64 114 94 65 115 76 66 116 43 67 117 65 68 118 42 69 119 51 70 120 73 71 121 52 72 122 41 73 123 67 74 124 66 75 125 43 67 126 56 31 127 52 72 128 50 76 129 55 2 130 62 1 131 72 77 132 94 65 133 89 78 134 41 73 135 70 79 136 50 76 137 51 70 138 56 31 139 55 2 140 42 69 141 58 27 142 57 7 143 51 70 144 70 79 145 71 80 146 52 72 147 64 81 148 43 67 149 50 76 150 60 26 151 41 73 152 54 82 153 59 25 154 58 27 155 41 73 156 59 25 157 40 83 158 42 69 159 61 32 160 43 67 161 85 84 162 78 85 163 69 86 164 90 87 165 74 64 166 78 85 167 77 88 168 85 84 169 69 86 170 79 89 171 83 90 172 68 91 173 54 82 174 67 74 175 40 83 176 54 82 177 65 68 178 75 92 179 72 77 180 86 93 181 79 89 182 39 39 183 80 94 184 82 95 185 98 44 186 118 96 187 34 97 188 39 39 189 87 98 190 46 4 191 103 99 192 33 100 193 3 37 194 99 56 195 118 96 196 97 101 197 119 102 198 33 100 199 109 103 200 27 13 201 29 49 202 24 52 203 116 104 204 37 61 205 121 105 206 124 106 207 33 100 208 119 102 209 49 30 210 91 107 211 48 33 212 74 64 213 70 79 214 78 85 215 53 29 216 88 108 217 95 109 218 83 90 219 77 88 220 68 91 221 78 85 222 66 75 223 69 86 224 45 34 225 91 107 226 84 110 227 75 92 228 79 89 229 68 91 230 47 5 231 87 98 232 88 108 233 75 92 234 77 88 235 67 74 236 64 81 237 76 66 238 72 77 239 53 29 240 93 111 241 49 30 242 65 68 243 72 77 244 79 89 245 71 80 246 76 66 247 73 71 248 77 88 249 66 75 250 67 74 251 86 93 252 82 95 253 83 90 254 89 78 255 95 109 256 88 108 257 80 94 258 83 90 259 82 95 260 92 112 261 95 109 262 94 65 263 93 111 264 90 87 265 91 107 266 86 93 267 88 108 268 87 98 269 84 110 270 81 113 271 80 94 272 84 110 273 90 87 274 85 84 275 45 34 276 80 94 277 44 10 278 33 100 279 111 114 280 109 103 281 1 9 282 96 46 283 7 38 284 29 49 285 26 50 286 24 52 287 4 11 288 98 44 289 1 9 290 6 36 291 101 60 292 102 59 293 114 23 294 47 5 295 115 28 296 0 35 297 102 59 298 99 56 299 7 38 300 103 99 301 3 37 302 105 24 303 120 63 304 112 115 305 4 11 306 99 56 307 97 101 308 103 99 309 96 46 310 106 45 311 112 115 312 126 116 313 110 117 314 34 97 315 35 53 316 106 45 317 37 61 318 104 58 319 36 57 320 106 45 321 35 53 322 103 99 323 36 57 324 101 60 325 37 61 326 105 24 327 110 117 328 37 61 329 121 105 330 110 117 331 126 116 332 122 55 333 111 114 334 35 53 335 128 118 336 109 103 337 125 119 338 113 120 339 63 121 340 115 28 341 116 104 342 129 122 343 118 96 344 117 54 345 108 123 346 122 55 347 120 63 348 38 124 349 107 125 350 123 62 351 63 121 352 38 124 353 126 116 354 5 126 355 100 127 356 127 128 357 107 125 358 5 126 359 125 119 360 108 123 361 100 127 362 113 120 363 33 100 364 124 106 365 109 103 366 128 118 367 119 102 368 112 115 369 120 63 370 127 128 371 125 119 372 109 103 373 111 114 374 126 116 375 112 115 376 127 128 377 118 96 378 104 58 379 116 104 380 34 97 381 118 96 382 117 54 383 118 96 384 129 122 385 117 54 386 5 126 387 125 119 388 100 127 389 108 123 390 116 104 391 121 105 392 107 125 393 128 118 394 5 126 395 38 124 396 119 102 397 107 125 398 115 28 399 63 121 400 114 23 401 108 123 402 126 116 403 100 127 404 63 121 405 124 106 406 38 124 407 129 122 408 116 104 409 32 129 410 117 54 411 129 122 412 32 129 413 13 0 414 12 15 415 62 1 416 2 3 417 6 36 418 46 4 419 11 6 420 61 32 421 57 7 422 1 9 423 45 34 424 44 10 425 19 12 426 18 42 427 27 13 428 12 15 429 20 22 430 17 16 431 8 18 432 16 41 433 23 19 434 12 15 435 13 0 436 21 21 437 9 17 438 60 26 439 62 1 440 114 23 441 123 62 442 105 24 443 9 17 444 8 18 445 59 25 446 15 20 447 10 8 448 57 7 449 49 30 450 3 37 451 113 120 452 113 120 453 115 28 454 49 30 455 11 6 456 14 40 457 56 31 458 1 9 459 7 38 460 48 33 461 15 20 462 58 27 463 59 25 464 0 35 465 39 39 466 46 4 467 3 37 468 49 30 469 48 33 470 0 35 471 4 11 472 44 10 473 13 0 474 55 2 475 56 31 476 10 8 477 18 42 478 19 12 479 8 18 480 9 17 481 17 16 482 10 8 483 15 20 484 23 19 485 11 6 486 19 12 487 22 43 488 13 0 489 14 40 490 22 43 491 98 44 492 34 97 493 106 45 494 18 42 495 23 19 496 31 47 497 22 43 498 24 52 499 25 48 500 23 19 501 16 41 502 29 49 503 17 16 504 30 51 505 29 49 506 21 21 507 25 48 508 26 50 509 20 22 510 26 50 511 30 51 512 22 43 513 19 12 514 28 14 515 35 53 516 34 97 517 117 54 518 99 56 519 102 59 520 36 57 521 101 60 522 2 3 523 105 24 524 74 64 525 92 112 526 94 65 527 43 67 528 64 81 529 65 68 530 51 70 531 71 80 532 73 71 533 41 73 534 40 83 535 67 74 536 43 67 537 61 32 538 56 31 539 50 76 540 51 70 541 55 2 542 72 77 543 76 66 544 94 65 545 41 73 546 66 75 547 70 79 548 51 70 549 52 72 550 56 31 551 42 69 552 54 82 553 58 27 554 51 70 555 50 76 556 70 79 557 52 72 558 73 71 559 64 81 560 50 76 561 62 1 562 60 26 563 54 82 564 40 83 565 59 25 566 41 73 567 60 26 568 59 25 569 42 69 570 57 7 571 61 32 572 85 84 573 90 87 574 78 85 575 90 87 576 92 112 577 74 64 578 77 88 579 81 113 580 85 84 581 79 89 582 86 93 583 83 90 584 54 82 585 75 92 586 67 74 587 54 82 588 42 69 589 65 68 590 72 77 591 89 78 592 86 93 593 39 39 594 44 10 595 80 94 596 98 44 597 97 101 598 118 96 599 39 39 600 82 95 601 87 98 602 103 99 603 35 53 604 33 100 605 99 56 606 104 58 607 118 96 608 24 52 609 28 14 610 27 13 611 27 13 612 31 47 613 29 49 614 116 104 615 104 58 616 37 61 617 49 30 618 93 111 619 91 107 620 74 64 621 71 80 622 70 79 623 53 29 624 47 5 625 88 108 626 83 90 627 81 113 628 77 88 629 78 85 630 70 79 631 66 75 632 45 34 633 48 33 634 91 107 635 75 92 636 65 68 637 79 89 638 47 5 639 46 4 640 87 98 641 75 92 642 68 91 643 77 88 644 64 81 645 73 71 646 76 66 647 53 29 648 95 109 649 93 111 650 65 68 651 64 81 652 72 77 653 71 80 654 74 64 655 76 66 656 77 88 657 69 86 658 66 75 659 86 93 660 87 98 661 82 95 662 89 78 663 94 65 664 95 109 665 80 94 666 81 113 667 83 90 668 92 112 669 93 111 670 95 109 671 93 111 672 92 112 673 90 87 674 86 93 675 89 78 676 88 108 677 84 110 678 85 84 679 81 113 680 84 110 681 91 107 682 90 87 683 45 34 684 84 110 685 80 94 686 33 100 687 35 53 688 111 114 689 1 9 690 98 44 691 96 46 692 25 48 693 24 52 694 26 50 695 29 49 696 30 51 697 26 50 698 4 11 699 97 101 700 98 44 701 6 36 702 2 3 703 101 60 704 53 29 705 115 28 706 47 5 707 114 23 708 2 3 709 47 5 710 0 35 711 6 36 712 102 59 713 7 38 714 96 46 715 103 99 716 4 11 717 0 35 718 99 56 719 105 24 720 112 115 721 110 117 722 121 105 723 37 61 724 110 117 725 122 55 726 125 119 727 111 114 728 117 54 729 32 129 730 108 123 731 120 63 732 123 62 733 38 124 734 123 62 735 114 23 736 63 121 737 126 116 738 127 128 739 5 126 740 127 128 741 120 63 742 107 125 743 125 119 744 122 55 745 108 123 746 113 120 747 3 37 748 33 100 749 5 126 750 128 118 751 125 119 752 108 123 753 32 129 754 116 104 755 107 125 756 119 102 757 128 118 758 38 124 759 124 106 760 119 102 761 108 123 762 121 105 763 126 116 764 63 121 765 113 120 766 124 106 767</p>
        </polylist>
      </mesh>
    </geometry>
  </library_geometries>
  <library_controllers/>
  <library_visual_scenes>
    <visual_scene id="Scene" name="Scene">
      <node id="Camera" name="Camera" type="NODE">
        <matrix sid="transform">0.6858805 -0.3173701 0.6548619 7.481132 0.7276338 0.3124686 -0.6106656 -6.50764 -0.01081678 0.8953432 0.4452454 5.343665 0 0 0 1</matrix>
        <instance_camera url="#Camera-camera"/>
      </node>
      <node id="Lamp" name="Lamp" type="NODE">
        <matrix sid="transform">-0.2908646 -0.7711008 0.5663932 4.076245 0.9551712 -0.1998834 0.2183912 1.005454 -0.05518906 0.6045247 0.7946723 5.903862 0 0 0 1</matrix>
        <instance_light url="#Lamp-light"/>
      </node>
      <node id="Lamp_001" name="Lamp_001" type="NODE">
        <matrix sid="transform">-0.290865 -0.7711005 0.5663933 4.076245 0.955171 -0.1998836 0.2183914 1.005454 -0.05518899 0.6045248 0.7946723 5.903862 0 0 0 1</matrix>
        <instance_light url="#Lamp_001-light"/>
      </node>
      <node id="Camera_001" name="Camera_001" type="NODE">
        <matrix sid="transform">0.6858805 -0.3173701 0.6548619 7.481132 0.7276338 0.3124686 -0.6106656 -6.50764 -0.01081675 0.8953432 0.4452454 5.343665 0 0 0 1</matrix>
        <instance_camera url="#Camera_001-camera"/>
      </node>
      <node id="Cube_001" name="Cube_001" type="NODE">
        <matrix sid="transform">1.258025 0 1.0998e-7 -0.4447595 0 -1.781283 0 0.6199722 -1.0998e-7 0 1.258025 0 0 0 0 1</matrix>
        <instance_geometry url="#Cube_001-mesh" name="Cube_001">
          <bind_material>
            <technique_common>
              <instance_material symbol="Material_001-material" target="#Material_001-material"/>
            </technique_common>
          </bind_material>
        </instance_geometry>
      </node>
    </visual_scene>
  </library_visual_scenes>
  <scene>
    <instance_visual_scene url="#Scene"/>
  </scene>
</COLLADA>