country_decisions = {

	aelnar_nation = {
		major = yes
		potential = {
			tag = A21
			normal_or_historical_nations = yes
			was_never_end_game_tag_trigger = yes
			capital_scope = {
				colonial_region = colonial_noruin
			}
		}

		allow = {
			is_at_war = no
			is_free_or_tributary_trigger = yes
			is_nomad = no
			NOT = { exists = Z43 }
			custom_trigger_tooltip = {
				tooltip = elven_rekindling_tooltip
				has_country_flag = elven_rekindling
			}
		}
		effect = {
			change_tag = Z43
			swap_non_generic_missions = yes
			remove_non_electors_emperors_from_empire_effect = yes
			if = {
				limit = {
					NOT = { government_rank = 2 }
				}
				set_government_rank = 2
			}
			add_country_modifier = {
				name = "centralization_modifier"
				duration = 7300
			}
			add_prestige = 25
			country_event = { id = ideagroups.1 } #Swap Ideas
		}
		ai_will_do = {
			factor = 400
		}
	}
	
	conscript_lithiel = {
		major = yes
		potential = {
			tag = Z43
			has_country_modifier = aelnar_lithiel_in_prison
			had_country_flag = {
				flag = aelnar_lithiel_in_prison_flag
				days = 18250
			}
			is_at_war = yes
		}

		allow = {
			NOT = { war_score = -20 }
			war_exhaustion = 5
		}
		effect = {
			add_stability = 1
			add_legitimacy = -25
			define_general = {
				shock = 6
				fire = 5
				siege = 1
				manuever = 5
				female = yes
				name = "Lithiel"
			}
			remove_country_modifier = aelnar_lithiel_in_prison
			hidden_effect = { set_country_flag = lithiel_retire }
		}
		ai_will_do = {
			factor = 400
		}
	}
	
	harvest_connadh = {
		major = yes
		potential = {
			tag = Z43
			has_country_flag = edict_21
		}

		allow = {
			is_at_war = yes
			any_province = {
				is_city = yes
				custom_trigger_tooltip = {
					tooltip = has_ruinborn_elf_tooltip
					OR = {
						has_ruinborn_minority_trigger = yes
						has_ruinborn_majority_trigger = yes
					}
				}
				NOT = { has_province_modifier = devasted_province }
				controller = {
					tag = ROOT
				}
				units_in_province = ROOT
			}
			adm_power = 15
			dip_power = 5
			mil_power = 5
		}
		effect = {
			random_province = {
				limit = {
					is_city = yes
					custom_trigger_tooltip = {
						tooltip = has_ruinborn_elf_tooltip
						OR = {
							has_ruinborn_minority_trigger = yes
							has_ruinborn_majority_trigger = yes
						}
					}
					NOT = { has_province_modifier = devasted_province }
					controller = {
						tag = ROOT
					}
					units_in_province = ROOT
				}
				add_province_modifier = {
					name = devasted_province
					duration = 9125
				}
				add_devastation = 30
				every_core_country = {
					limit = { NOT = { tag = ROOT } }
					add_trust = {
						who = Z43
						value = -5
					}
				}
			}
			add_adm_power = -15
			add_dip_power = -5
			add_mil_power = -5
			custom_tooltip = harvest_connadh_tooltip
			hidden_effect = { country_event = { id = aelnar.103 } }
		}
		ai_will_do = {
			factor = 400
		}
	}

}
