namespace = goblin_tide

#Starting Event
country_event = {
	id = goblin_tide.1
	title = goblin_tide.1.t
	desc = goblin_tide.1.d
	picture = ARTWORK_eventPicture
	
	is_triggered_only = yes
	
	trigger = {
		always = yes
	}
	
	#They're coming from the Old Hold !
	option = {
        name = goblin_tide.1.a
        ai_chance = { factor = 100 }
		every_owned_province = {
			limit = { has_province_modifier = old_hold }
			spawn_rebels = {
				type = goblin_tide_rebel
				culture = cave_goblin
				size = 1
				win = yes
			}
			spawn_rebels = {
				type = goblin_tide_rebel
				culture = cave_goblin
				size = 1
				win = yes
			}
			spawn_rebels = {
				type = goblin_tide_rebel
				culture = cave_goblin
				size = 1
				win = yes
			}
		}
		hidden_effect = {
			country_event = { id = goblin_tide.3 days = 365 random = 100 }
		}
	}
}
#Random dead dwarf storming
country_event = {
	id = goblin_tide.2
	title = goblin_tide.2.t
	desc = goblin_tide.2.d
	picture = ARTWORK_eventPicture
	
	is_triggered_only = yes
	
	trigger = {
		any_owned_province = { has_province_modifier = old_hold }
		NOT = { has_country_flag = fallen_disaster_end }
	}
	
	immediate = {
		hidden_effect = {
			every_owned_province = {
				limit = { has_province_modifier = old_hold }
				spawn_rebels = {
					type = goblin_tide_rebel
					culture = cave_goblin
					size = 1
				}
			}	
		}
	}
	
	#They're coming from the Old Hold !
	option = {
        name = goblin_tide.2.a
        ai_chance = { factor = 100 }
		custom_tooltip = goblin_tide_old_hold_tooltip
	}
}
	
	#Invading through road
country_event = {
	id = goblin_tide.3
	title = goblin_tide.3.t
	desc = goblin_tide.3.d
	picture = ARTWORK_eventPicture
	
	is_triggered_only = yes
	
	trigger = {
		always = yes
	}
	
	immediate = {
		hidden_effect = {
			random_owned_province = {
				limit = { has_terrain = dwarven_road NOT = { has_province_modifier = old_gate } is_city = yes }
				add_province_modifier = {
					name = old_gate
					duration = -1
				}
				spawn_rebels = {
					type = goblin_tide_rebel
					culture = cave_goblin
					size = 2
				}
				set_province_flag = old_gate_flag
			}
			random_owned_province = {
				limit = { has_terrain = dwarven_road NOT = { has_province_modifier = old_gate } is_city = yes }
				add_province_modifier = {
					name = old_gate
					duration = -1
				}
				spawn_rebels = {
					type = goblin_tide_rebel
					culture = cave_goblin
					size = 2
				}
				set_province_flag = old_gate_flag
			}
			random_owned_province = {
				limit = { has_terrain = dwarven_road NOT = { has_province_modifier = old_gate } is_city = yes }
				add_province_modifier = {
					name = old_gate
					duration = -1
				}
				spawn_rebels = {
					type = goblin_tide_rebel
					culture = cave_goblin
					size = 2
				}
				set_province_flag = old_gate_flag
			}
			random_owned_province = {
				limit = { has_terrain = dwarven_road NOT = { has_province_modifier = old_gate } is_city = yes }
				add_province_modifier = {
					name = old_gate
					duration = -1
				}
				spawn_rebels = {
					type = goblin_tide_rebel
					culture = cave_goblin
					size = 2
				}
				set_province_flag = old_gate_flag
			}
			random_owned_province = {
				limit = { has_terrain = dwarven_road NOT = { has_province_modifier = old_gate } is_city = yes }
				add_province_modifier = {
					name = old_gate
					duration = -1
				}
				spawn_rebels = {
					type = goblin_tide_rebel
					culture = cave_goblin
					size = 2
				}
				set_province_flag = old_gate_flag
			}
			country_event = { id = goblin_tide.5 days = 400 random = 100 }
		}
	}
	
	#They're coming from the Old Hold !
	option = {
        name = goblin_tide.3.a
        ai_chance = { factor = 100 }
		custom_tooltip = old_gate_tooltip
	}
}

#Random dwarf from old gate
country_event = {
	id = goblin_tide.4
	title = goblin_tide.4.t
	desc = goblin_tide.4.d
	picture = ARTWORK_eventPicture
	
	is_triggered_only = yes
	
	trigger = {
		any_owned_province = {
			has_province_modifier = old_gate
		}
	}
	
	#They're coming from the Old Gates !
	option = {
        name = goblin_tide.4.a
        ai_chance = { factor = 100 }
		every_owned_province = {
			limit = { has_province_modifier = old_gate }
			spawn_rebels = {
				type = goblin_tide_rebel
				culture = cave_goblin
				size = 1
			}
			spawn_rebels = {
				type = goblin_tide_rebel
				culture = cave_goblin
				size = 1
			}
		}
	}
}

#Big Horde - Nastytooth
country_event = {
	id = goblin_tide.5
	title = goblin_tide.5.t
	desc = goblin_tide.5.d
	picture = ARTWORK_eventPicture
	
	is_triggered_only = yes
	
	trigger = {
		always = yes
	}
	
	immediate = {
		hidden_effect = {
			every_owned_province = {
				limit = { has_province_modifier = old_gate }
				spawn_rebels = {
					type = goblin_tide_rebel
					culture = cave_goblin
					size = 1
				}
			}
			random_owned_province = {
				limit = { has_province_modifier = old_hold }
				spawn_rebels = {
					type = goblin_tide_rebel
					culture = cave_goblin
					leader = "Nastytooth"
					size = 2
				}
				spawn_rebels = {
					type = goblin_tide_rebel
					culture = cave_goblin
					size = 1
				}
			}
		}
	}
	
	option = {
        name = goblin_tide.5.a
        ai_chance = { factor = 100 }
		custom_tooltip = nastytooth_tooltip
		hidden_effect = { set_country_flag = fallen_disaster_end }
	}
}

#Found an old dwarven artefact
country_event = {
	id = goblin_tide.6
	title = goblin_tide.6.t
	desc = goblin_tide.6.d
	picture = ARTWORK_eventPicture
	
	mean_time_to_happen = {
		years = 30
	}
	
	trigger = {
		has_country_flag = fallen_treasure
		NOT = { has_country_flag = fallen_treasure_2 }
		any_owned_province = {
			has_province_modifier = old_hold
		}
		NOT = { current_age = age_of_discovery }
	}
	
	immediate = {
		hidden_effect = { set_country_flag = fallen_treasure_2 }
	}
	#Sell it
	option = {
        name = goblin_tide.6.a
        ai_chance = { factor = 100 }
		add_years_of_income = 1
		add_legitimacy = -5
		add_prestige = -5
	}
	#Put it in the display in a hold
	option = {
        name = goblin_tide.6.b
        ai_chance = { factor = 100 }
		add_prestige = 20
		add_legitimacy = 20
	}
	#Study it
	option = {
        name = goblin_tide.6.c
        ai_chance = { factor = 100 }
		add_adm_power = 100
		add_mil_power = 100
		add_dip_power = 100
	}
}


#News of strange thing deep in the old Hold
country_event = {
	id = goblin_tide.7
	title = goblin_tide.7.t
	desc = goblin_tide.7.d
	picture = ARTWORK_eventPicture
	
	mean_time_to_happen = {
		years = 15
	}
	
	trigger = {
		has_country_flag = fallen_treasure_2
		NOT = { has_country_flag = fallen_treasure_3 }
		any_owned_province = {
			has_province_modifier = old_hold
		}
	}
	
	immediate = {
		hidden_effect = { set_country_flag = fallen_treasure_3 }
	}
	
	#Probably just random stories
	option = {
        name = goblin_tide.7.a
        ai_chance = { factor = 100 }
		hidden_effect = { country_event = { id = goblin_tide.8 days = 365 } }
	}
	
	#Send an exploration team
	option = {
        name = goblin_tide.7.b
        ai_chance = { factor = 100 }
		add_adm_power = -20
		add_dip_power = -20
		add_mil_power = -10
		hidden_effect = { country_event = { id = goblin_tide.8 days = 1095 } }
	}
	
	#Mine harder to discover the Old Secret
	option = {
        name = goblin_tide.7.c
        ai_chance = { factor = 100 }
		add_years_of_income = -0.2
		add_adm_power = -10
		hidden_effect = { country_event = { id = goblin_tide.8 days = 720 } }
	}
}


##Start Goblin Tide disaster
country_event = {
	id = goblin_tide.8
	title = goblin_tide.8.t
	desc = goblin_tide.8.d
	picture = ARTWORK_eventPicture
	
	is_triggered_only = yes
	
	trigger = {
		has_country_flag = fallen_treasure_3
		any_owned_province = {
			has_province_modifier = old_hold
			continent = serpentspine
		}
	}
	
	#They are coming from deep in the mountain
	option = {
        name = goblin_tide.8.a
        ai_chance = { factor = 100 }
		trigger = { NOT = { has_country_flag = goblin_tide_happened } }
		hidden_effect = {
			set_global_flag = fallen_disaster
			set_country_flag = fallen_disaster_start
		}
	}
	#It was just rumors
	option = {
        name = goblin_tide.8.b
        ai_chance = { factor = 100 }
		trigger = { has_country_flag = goblin_tide_happened }
		add_prestige = 5
	}
}

##End event
country_event = {
	id = goblin_tide.9
	title = goblin_tide.9.t
	desc = goblin_tide.9.d
	picture = ARTWORK_eventPicture
	
	is_triggered_only = yes
	
	hidden = yes
	
	trigger = {
		always = yes
	}
	
	immediate = {
		hidden_effect = { set_country_flag = goblin_tide_happened }
	}
	
	#You won
	option = {
        name = goblin_tide.9.a
        ai_chance = { factor = 100 }
		country_event = { id = goblin_tide.10  days = 5 }
	}
}

country_event = {
	id = goblin_tide.10
	title = goblin_tide.10.t
	desc = goblin_tide.10.d
	picture = ARTWORK_eventPicture
	
	is_triggered_only = yes
	
	trigger = {
		always = yes
	}
	
	immediate = {
		hidden_effect = { set_country_flag = goblin_tide_happened }
	}
	
	#You won
	option = {
        name = goblin_tide.10.a
        ai_chance = { factor = 100 }
		trigger = {
			NOT = { has_country_flag = lost_goblin }
		}
		add_ruler_modifier = {
			name = serpentspine_defender
			duration = -1
		}
		add_prestige = 50
		add_legitimacy = 50
		add_republican_tradition = 50
		add_devotion = 50
		every_owned_province = {
			remove_province_modifier = old_gate
		}
	}
	#You lost
	option = {
        name = goblin_tide.10.b
        ai_chance = { factor = 100 }
		trigger = { 
			has_country_flag = lost_goblin
		}
		add_legitimacy = -50
		add_republican_tradition = -50
		add_devotion = -100
	}
}
